%YAML 1.1
%TAG !u! tag:unity3d.com,2011:
--- !u!114 &11400000
MonoBehaviour:
  m_ObjectHideFlags: 0
  m_PrefabParentObject: {fileID: 0}
  m_PrefabInternal: {fileID: 0}
  m_GameObject: {fileID: 0}
  m_Enabled: 1
  m_EditorHideFlags: 0
  m_Script: {fileID: 11500000, guid: 7f8dc44d54ba9f444a92014ace90f671, type: 3}
  m_Name: AppConfig-SpinnerFall
  m_EditorClassIdentifier: 
  CompanyName: The King Mobile
  ProductName: Spinner Fall
  DisplayName: SPINNER FALL!!!
  ApplicationIdentifier: com.thekingmobile.spinnerfall
  BundleVersion: 2.0
  AndroidBundleVersionCode: 2
  IconPath: Assets/Jumpy_Helix/Sprites/resources/spinner-fall-icon.png
  IconSplashPath: Assets/Jumpy_Helix/Sprites/resources/the-king-mobile-splash.png
  KeyAliasPass: kfzsf0
  KeystorePass: kfzorrilla
  AndroidKeyAliasName: 539-spinner-fall
  AndroidKeyAliasPass: kfzsf0
  AndroidKeystoreName: d:\\ESPACIO-TRABAJO\\20170502-KMFactory\\PROD\\539-helix-jumpy\\other\\KEYSTORE-SPINNER-FALL.keystore
  AndroidKeystorePass: kfzorrilla
  DeployPath: ../other/spinner-fall-release
  AppUrl: https://play.google.com/store/apps/details?id=com.thekingmobile.spinnerfall
  FbAppId: 1013093142200006
  FbSharedCaption: 'Check out My New Score: '
  FbPictureUrl: http://i-cdn.phonearena.com/images/article/85835-thumb/Google-Pixel-3-codenamed-Bison-to-be-powered-by-Andromeda-OS.jpg
  FbDescription: Enjoy Fun, free games! Challenge yourself or share with friends.
    Fun and easy to use games.
  ScreenShotName: screenshot.png
  ShareText: Can yo beat my score?
  ShareSubject: Share Via
  TwitterAddress: http://twitter.com/intent/tweet
  TwitterTextToDisplay: 'Hey Guys! Check out my score:'
  TwitterLanguage: en
  AdmobAppId: ca-app-pub-3654628576200837~5267757484
  BannerId: ca-app-pub-3654628576200837/7755972416
  InterstitialId: ca-app-pub-3654628576200837/9476248197
  RewardedVideoId: ca-app-pub-3654628576200837/9284676503
