%YAML 1.1
%TAG !u! tag:unity3d.com,2011:
--- !u!114 &11400000
MonoBehaviour:
  m_ObjectHideFlags: 0
  m_PrefabParentObject: {fileID: 0}
  m_PrefabInternal: {fileID: 0}
  m_GameObject: {fileID: 0}
  m_Enabled: 1
  m_EditorHideFlags: 0
  m_Script: {fileID: 11500000, guid: 336620b880b3f57418484fce6ba8592e, type: 3}
  m_Name: GameplayConfig
  m_EditorClassIdentifier: 
  testingLevel: 0
  reviveWaitTime: 4
  firstHelixPosition: {x: 0, y: -1, z: 2.5}
  helixSpace: 5
  fadingHelixScale: 4
  fadingHelixTime: 0.5
  helixPassedCountForBreak: 2
  threeStarPercentTime: 50
  twoStarPercentTime: 30
  oneStarPercentTime: 10
  uIFadingTime: 2
  ballSplatFadingTime: 2
  backgroundMaterial: {fileID: 2100000, guid: 857b1245b106e644e920c82df2435941, type: 2}
  backgroundColors:
  - {fileID: 11400000, guid: 1274cc3e4cf16ed4ebeca659cfe82675, type: 2}
  - {fileID: 11400000, guid: d202e0c299665e44f8300b7fa76a7a7f, type: 2}
  - {fileID: 11400000, guid: 1a90f9af3bfa88640913ba13d8d9472b, type: 2}
  - {fileID: 11400000, guid: 82153485e6734704694d62f09959827c, type: 2}
  - {fileID: 11400000, guid: af47b71d2be0a0740b08eb58cac418e7, type: 2}
  - {fileID: 11400000, guid: cca9f487976169e4c981cf9c748b6365, type: 2}
  - {fileID: 11400000, guid: e9d4b79c1d788f743bf4d0894891f303, type: 2}
  - {fileID: 11400000, guid: 935afec5df1aa66409c06d203767b05c, type: 2}
  - {fileID: 11400000, guid: 089787b4307459b47a0652983a541463, type: 2}
  - {fileID: 11400000, guid: 64873bedba5dcd9488cf47a76379f9a4, type: 2}
  - {fileID: 11400000, guid: ebd956fc87eb8524980b6ec9aaa150ec, type: 2}
  gameLevels:
  - {fileID: 11400000, guid: 9bac4d6b6f543df4fa195e1c93705307, type: 2}
  - {fileID: 11400000, guid: 139af7af6223b1b4bbf4ec0cdfd7bbed, type: 2}
  - {fileID: 11400000, guid: d67584114001ce041a1d79cd085f2356, type: 2}
  - {fileID: 11400000, guid: 8a3acdd520fd4bb49a5cc6c5ae16b828, type: 2}
  - {fileID: 11400000, guid: a36d31bbd0d5e8548b47a422da0bd5b1, type: 2}
  - {fileID: 11400000, guid: cb7096119f8529c4db2e0b7f76ca80a0, type: 2}
  - {fileID: 11400000, guid: 6ffa94b8a89e2f542bffec217bb44d39, type: 2}
  - {fileID: 11400000, guid: 6a07a4725be1f8242871288fad054d33, type: 2}
  - {fileID: 11400000, guid: a266464909988a341a295f111055e612, type: 2}
  - {fileID: 11400000, guid: ba9e0a1f11ab39d4f9109b55f103b94c, type: 2}
  - {fileID: 11400000, guid: 221c4e498f94fd7428110317f417ec7b, type: 2}
  - {fileID: 11400000, guid: 385f39ec5d4e0cf4d8bb7329a7ad40b4, type: 2}
  particles:
  - {fileID: 11400000, guid: f5425478deaa5944aacc4ce381a35bb4, type: 2}
  - {fileID: 11400000, guid: 2afac3d796e725b4aa831dc023e522d7, type: 2}
  - {fileID: 11400000, guid: 4c99e21565cdbaf48b38ea078e9520fe, type: 2}
  - {fileID: 11400000, guid: 796f2424a1f3c714b9eb2387f5836526, type: 2}
  - {fileID: 11400000, guid: 1ddbb7b8726a9364f8babba187f33051, type: 2}
  - {fileID: 11400000, guid: c0b32114b87aada4a95e47deba350ca3, type: 2}
  - {fileID: 11400000, guid: 85751d3a508b97d45b41fef07151d71b, type: 2}
  - {fileID: 11400000, guid: 644634a0372984440906063c1787b29e, type: 2}
  - {fileID: 11400000, guid: 7fc86ccf5e7373b4d8818fa162c0029b, type: 2}
  - {fileID: 11400000, guid: 4397d1a851a5d6d45ba8a4dfef346f0d, type: 2}
  - {fileID: 11400000, guid: 01426148e4e29584a9a9592493819195, type: 2}
  currentGameMode: 0
  challengeLevels:
  - {fileID: 11400000, guid: ffc805dd59027f24b8ea3c4e42e182c5, type: 2}
  - {fileID: 11400000, guid: 118af5d2cc4ae4f409a5d78739933cd4, type: 2}
  - {fileID: 11400000, guid: 18733400f558d904b9eb088e402c07fe, type: 2}
  - {fileID: 11400000, guid: 6a7e655b0b93e954e98635b76ee4f0b3, type: 2}
  - {fileID: 11400000, guid: 2ad911bcef2a1c1409673db256fd37d8, type: 2}
  - {fileID: 11400000, guid: 451d668c80af18845a5260aefa9b188e, type: 2}
  - {fileID: 11400000, guid: 4cf8ce2c226c8eb4e8a7c8510b22f562, type: 2}
  - {fileID: 11400000, guid: 57519ee01d5229744a4fc92050bfc675, type: 2}
  - {fileID: 11400000, guid: 18241f2de0d277f4682943e617066014, type: 2}
  - {fileID: 11400000, guid: 24907767860a66b48a88bb8f9b883c8d, type: 2}
  - {fileID: 11400000, guid: c787c3a6adf86524e94df713725df791, type: 2}
  - {fileID: 11400000, guid: 736629e008f2cec46b9af7542331b799, type: 2}
  - {fileID: 11400000, guid: 04bca5b4e79e3164c880625c9026c1c5, type: 2}
  - {fileID: 11400000, guid: c8825697758b25d4b87fa655650883f8, type: 2}
  - {fileID: 11400000, guid: 181153a6517baef41a6b237668e90227, type: 2}
  - {fileID: 11400000, guid: f3d469f8129678743ae016e0ea2b935e, type: 2}
  - {fileID: 11400000, guid: 3a8c46289fbf9004b91138fca4525a2b, type: 2}
  - {fileID: 11400000, guid: 36cbdd13f84a7f244a4b97c2cd5770a2, type: 2}
  - {fileID: 11400000, guid: 4ec303f5b51d38847b96555702b12dfa, type: 2}
  - {fileID: 11400000, guid: 81a10781286cb30488c444b237e90190, type: 2}
  - {fileID: 11400000, guid: cfffbc14771b7d34196422b24fb70516, type: 2}
  - {fileID: 11400000, guid: 8c44534df5b7e664aacb39170bde257f, type: 2}
  - {fileID: 11400000, guid: fbee2cdfd068e0e449bc40128ee0decb, type: 2}
  - {fileID: 11400000, guid: 044286de612eb45459eb0116f81914bf, type: 2}
  - {fileID: 11400000, guid: b09384b5138ec1a45988c7ee3a61c672, type: 2}
  - {fileID: 11400000, guid: d3f1feead4a9bc24ca0160196d431c84, type: 2}
  - {fileID: 11400000, guid: 1035d865a2e46fb449c32c1cac59c143, type: 2}
  - {fileID: 11400000, guid: eeb36a28a3aaa87499a712cf2fd4a720, type: 2}
  - {fileID: 11400000, guid: 8ec79b5442fe5134b9646bb253e019ea, type: 2}
  - {fileID: 11400000, guid: b9011a19764c2044e8c27844b8d3154f, type: 2}
  - {fileID: 11400000, guid: db34dcb900474d9448be7c8f6b589a01, type: 2}
  - {fileID: 11400000, guid: f0d10b4b911001a4f92db1652726018e, type: 2}
  - {fileID: 11400000, guid: 43d9099b1fab2aa419cc719daf7ba9fa, type: 2}
  - {fileID: 11400000, guid: a17405f2dd8dafc4db84d883048864c5, type: 2}
  - {fileID: 11400000, guid: 6a928be1fc36b2c4badd7b3d36a55020, type: 2}
  - {fileID: 11400000, guid: f30378427b131644d877b86d9313d876, type: 2}
  - {fileID: 11400000, guid: 49836304c22f60b4eb9696d0812d7026, type: 2}
  - {fileID: 11400000, guid: ba87152c04970824094b8004c7012bd0, type: 2}
  - {fileID: 11400000, guid: 9a2679f0ecb5a8d408df9ffff4552999, type: 2}
  - {fileID: 11400000, guid: 780660b85b3cc72478f587492a4d890b, type: 2}
  - {fileID: 11400000, guid: 76fdb90659791d347a62085e0c79472b, type: 2}
  - {fileID: 11400000, guid: 32255e94d09fceb439aebd04e9eea02b, type: 2}
  - {fileID: 11400000, guid: f725a4900634ab443a7d79a6a5ea0f53, type: 2}
  - {fileID: 11400000, guid: d2450cb974233be498d641444781ccd6, type: 2}
  - {fileID: 11400000, guid: 7ea171e7eed1ec643ae64030c8bee1cd, type: 2}
  - {fileID: 11400000, guid: 17ae928c2ca82804890f8bd17e8ec09e, type: 2}
  - {fileID: 11400000, guid: bb0ecf3d82fd8524d8b0111f31d8e159, type: 2}
  - {fileID: 11400000, guid: c0911d30094f93a469ec44f0b9395b5c, type: 2}
  - {fileID: 11400000, guid: 3c3f98409d619cd4694431490f03ac45, type: 2}
  - {fileID: 11400000, guid: 41e225d90faa1e54d9d757905569704c, type: 2}
  - {fileID: 11400000, guid: 7a651e751228eda49a6471d6a270b57f, type: 2}
  - {fileID: 11400000, guid: 9943e7981fa7cc54ebc2c8752aaac15b, type: 2}
  - {fileID: 11400000, guid: 468ec0d5eec948140847c07c38a3effa, type: 2}
  - {fileID: 11400000, guid: ac70c0a238ca4bd4ca9116058d280bdd, type: 2}
  - {fileID: 11400000, guid: ad0fbb83ee6b01144915733c3fedb76c, type: 2}
  - {fileID: 11400000, guid: 4d6045f2d2ba1f449809f6b8d4507f3f, type: 2}
  - {fileID: 11400000, guid: d9ce1c530261bde4b83479ecabea675a, type: 2}
  - {fileID: 11400000, guid: e1164e14c66671d4da9e9f7c4c4608cb, type: 2}
  - {fileID: 11400000, guid: b473db1b5ff9d6349bdb4d94afdf43a8, type: 2}
  - {fileID: 11400000, guid: 2e4cc42c728cf9243ada74d4659dec42, type: 2}
  - {fileID: 11400000, guid: 9edca06a0eeddfc46b4b1b419cfcf781, type: 2}
  - {fileID: 11400000, guid: a5fa04827fda184419652ed6e8d15868, type: 2}
  - {fileID: 11400000, guid: 82639729b6d11a14f89d4d8838ef729e, type: 2}
  - {fileID: 11400000, guid: 47eb718947f439b468fd2237e5986482, type: 2}
  - {fileID: 11400000, guid: 0595e56625b55a143b2fae6ac5a0b4fd, type: 2}
  - {fileID: 11400000, guid: 98effe8025467bb4e8947ea8ab54c786, type: 2}
  - {fileID: 11400000, guid: ac4410a104e784b44ad8fbbd3026b972, type: 2}
  - {fileID: 11400000, guid: 7e124bbf7238e314bb164c14463481db, type: 2}
  - {fileID: 11400000, guid: 400268dfe2c76d94f8adad075897aefb, type: 2}
  - {fileID: 11400000, guid: e3710099bd2b3614b889ceafc286b2ac, type: 2}
  - {fileID: 11400000, guid: 5d1f0893ace45e048a143e37c5ce14ca, type: 2}
  - {fileID: 11400000, guid: eb8f751701689cc4b9af33c62e9dea94, type: 2}
  - {fileID: 11400000, guid: a7e354b646360914eb6efbb52439cb60, type: 2}
  - {fileID: 11400000, guid: e21e6b2c85192014ab0620ddaac03427, type: 2}
  - {fileID: 11400000, guid: bc4e5a79f649893418fc8cebf4590948, type: 2}
  - {fileID: 11400000, guid: 8580d63fb2d1e2c418a75b5cccc2804b, type: 2}
  - {fileID: 11400000, guid: 438a8438711e15c48986261d5b178c65, type: 2}
  - {fileID: 11400000, guid: 85753d5ad72d1e941897c7425163ef7e, type: 2}
  - {fileID: 11400000, guid: ddc50fda574e38b4a8e591ee827befe4, type: 2}
  - {fileID: 11400000, guid: f594815077203774ea29c5b5af11ed0b, type: 2}
  - {fileID: 11400000, guid: c7a476356b2806846968104c49f9b58a, type: 2}
  - {fileID: 11400000, guid: fa708bfb9c521cc4094b7c0614b19ba4, type: 2}
  - {fileID: 11400000, guid: 83ec90683a562684ab9257b8c83a8d87, type: 2}
  - {fileID: 11400000, guid: cd1fc0ea0a32c5743b2af8047324673b, type: 2}
  - {fileID: 11400000, guid: 7a36d06f07e01ff4699a26293088eef8, type: 2}
  - {fileID: 11400000, guid: ec1dacc2659923044bb3180470697dce, type: 2}
  - {fileID: 11400000, guid: 6e00753e8ac873d438b6658fbcac4199, type: 2}
  - {fileID: 11400000, guid: fc1ee51dad51d8643ba884ac4c2ef2d5, type: 2}
  - {fileID: 11400000, guid: 67996cf62c259fa4a9a27ab1b3d1f808, type: 2}
  - {fileID: 11400000, guid: 5bdb53aa066834740bc0c1bb6ca7ede0, type: 2}
  - {fileID: 11400000, guid: 2dafc2bbbc4cae54f9d19c935249142d, type: 2}
  - {fileID: 11400000, guid: ed8ca5a12258875489424d55d1c32a9b, type: 2}
  - {fileID: 11400000, guid: 3d1a850a5ce9dd640b4b1ebd6466fdb6, type: 2}
  - {fileID: 11400000, guid: 96cbb65a4d069eb44bfd4a04935eb387, type: 2}
  - {fileID: 11400000, guid: 869d05901318e024abeb36740bce2600, type: 2}
  - {fileID: 11400000, guid: 8e3f678201a130e4aadac4fcc499f97c, type: 2}
  - {fileID: 11400000, guid: 5d7f007d6f8da6540abe04eb053cd4bf, type: 2}
  - {fileID: 11400000, guid: e7c339d15b494fe4599db847011ac276, type: 2}
  - {fileID: 11400000, guid: 6a75d968dec7d7d4fafe836c96d3d581, type: 2}
  - {fileID: 11400000, guid: c6d93449ef2afee46926e7eb4e105108, type: 2}
  - {fileID: 11400000, guid: 0adf8799510057944b75af54c8d8eb39, type: 2}
  - {fileID: 11400000, guid: a078ecb2a0e5c7d4db4330ee7145f1bf, type: 2}
  - {fileID: 11400000, guid: 05ac4f09bf4af124f8f48ca695ef9bc1, type: 2}
  - {fileID: 11400000, guid: e94367b129834974db45f4d031992b50, type: 2}
  appConfig: {fileID: 11400000, guid: 7e48a527a54efa7418d802b5bad0ec16, type: 2}
  btnSwipe: 0
  musicIsMuted: 0
  musicIsOff: 0
