%YAML 1.1
%TAG !u! tag:unity3d.com,2011:
--- !u!114 &11400000
MonoBehaviour:
  m_ObjectHideFlags: 0
  m_PrefabParentObject: {fileID: 0}
  m_PrefabInternal: {fileID: 0}
  m_GameObject: {fileID: 0}
  m_Enabled: 1
  m_EditorHideFlags: 0
  m_Script: {fileID: 11500000, guid: fcb2c1389a9f93d4da4816490eb37d0c, type: 3}
  m_Name: Level3
  m_EditorClassIdentifier: 
  MinLevel: 31
  MaxLevel: 40
  MinHelixNumber: 25
  MaxHelixNumber: 35
  MinDisablePiecesNumber: 3
  MaxDisablePiecesNumber: 5
  MinDeadPiecesNumber: 1
  MaxDeadPiecesNumber: 2
  MovPieces: 1
  RandomValues: 0
  OneDirection: 0
  LerpMov: 1
  percentMov: 70
  angleMov: 60
  velMov: 0
  velLerp: 0.2
  dstMeta: 2
  MinTimeToPassLevel: 38
  MaxTimeToPassLevel: 53
  DeadPieceColor: {r: 0.4627451, g: 0.6117647, b: 0.043137256, a: 1}
  NormalPieceColor: {r: 0.13516435, g: 0.36903846, b: 0.7352941, a: 1}
  BrokenPieceColor: {r: 0.48235294, g: 0.49803922, b: 0.64705884, a: 1}
  BallColor: {r: 0.69803923, g: 0.41960785, b: 0, a: 1}
  PillarColor: {r: 0.42149255, g: 0.5147059, b: 0.15516868, a: 1}
