%YAML 1.1
%TAG !u! tag:unity3d.com,2011:
--- !u!114 &11400000
MonoBehaviour:
  m_ObjectHideFlags: 0
  m_PrefabParentObject: {fileID: 0}
  m_PrefabInternal: {fileID: 0}
  m_GameObject: {fileID: 0}
  m_Enabled: 1
  m_EditorHideFlags: 0
  m_Script: {fileID: 11500000, guid: fcb2c1389a9f93d4da4816490eb37d0c, type: 3}
  m_Name: Level12-other-crazy
  m_EditorClassIdentifier: 
  MinLevel: 1001
  MaxLevel: 1010
  MinHelixNumber: 100
  MaxHelixNumber: 200
  MinDisablePiecesNumber: 2
  MaxDisablePiecesNumber: 3
  MinDeadPiecesNumber: 3
  MaxDeadPiecesNumber: 5
  MovPieces: 1
  RandomValues: 0
  OneDirection: 1
  LerpMov: 1
  percentMov: 20
  angleMov: 50
  velMov: 89
  velLerp: 0.84
  dstMeta: 1
  MinTimeToPassLevel: 100
  MaxTimeToPassLevel: 100
  DeadPieceColor: {r: 0.75735295, g: 0.21161334, b: 0.34804824, a: 1}
  NormalPieceColor: {r: 0.5598377, g: 0.19463666, b: 0.88235295, a: 1}
  BrokenPieceColor: {r: 0.8161765, g: 0.578194, b: 0.06601429, a: 1}
  BallColor: {r: 0.9529412, g: 0.450764, b: 0.12549017, a: 1}
  PillarColor: {r: 0.5012976, g: 0.6991782, b: 0.89705884, a: 1}
