%YAML 1.1
%TAG !u! tag:unity3d.com,2011:
--- !u!114 &11400000
MonoBehaviour:
  m_ObjectHideFlags: 0
  m_PrefabParentObject: {fileID: 0}
  m_PrefabInternal: {fileID: 0}
  m_GameObject: {fileID: 0}
  m_Enabled: 1
  m_EditorHideFlags: 0
  m_Script: {fileID: 11500000, guid: fcb2c1389a9f93d4da4816490eb37d0c, type: 3}
  m_Name: Level7
  m_EditorClassIdentifier: 
  MinLevel: 71
  MaxLevel: 80
  MinHelixNumber: 40
  MaxHelixNumber: 45
  MinDisablePiecesNumber: 1
  MaxDisablePiecesNumber: 2
  MinDeadPiecesNumber: 1
  MaxDeadPiecesNumber: 2
  MovPieces: 1
  RandomValues: 1
  OneDirection: 0
  LerpMov: 0
  percentMov: 100
  angleMov: 120
  velMov: 140
  velLerp: 0.1
  dstMeta: 6
  MinTimeToPassLevel: 60
  MaxTimeToPassLevel: 68
  DeadPieceColor: {r: 1, g: 0.23529412, b: 0.21960784, a: 1}
  NormalPieceColor: {r: 0.63529414, g: 0.24313726, b: 0.28235295, a: 1}
  BrokenPieceColor: {r: 0.29779413, g: 0.53433263, b: 0.75, a: 1}
  BallColor: {r: 0.42352942, g: 0.5568628, b: 0.6784314, a: 1}
  PillarColor: {r: 1, g: 0.54901963, b: 0.25882354, a: 1}
