%YAML 1.1
%TAG !u! tag:unity3d.com,2011:
--- !u!114 &11400000
MonoBehaviour:
  m_ObjectHideFlags: 0
  m_PrefabParentObject: {fileID: 0}
  m_PrefabInternal: {fileID: 0}
  m_GameObject: {fileID: 0}
  m_Enabled: 1
  m_EditorHideFlags: 0
  m_Script: {fileID: 11500000, guid: 075bfabdf9548e04ba15838252cae2df, type: 3}
  m_Name: Color8
  m_EditorClassIdentifier: 
  MinLevel: 81
  MaxLevel: 90
  TopColor: {r: 0, g: 0, b: 0, a: 1}
  TopExponent: 0
  HorizonColor: {r: 0.822, g: 0.39607844, b: 0.93333334, a: 1}
  SkyIntensity: 0.13
  BottomColor: {r: 0.8980392, g: 0.27058825, b: 0.61960787, a: 1}
  BottomExponent: 1.66
