%YAML 1.1
%TAG !u! tag:unity3d.com,2011:
--- !u!114 &11400000
MonoBehaviour:
  m_ObjectHideFlags: 0
  m_PrefabParentObject: {fileID: 0}
  m_PrefabInternal: {fileID: 0}
  m_GameObject: {fileID: 0}
  m_Enabled: 1
  m_EditorHideFlags: 0
  m_Script: {fileID: 11500000, guid: 075bfabdf9548e04ba15838252cae2df, type: 3}
  m_Name: Color4
  m_EditorClassIdentifier: 
  MinLevel: 41
  MaxLevel: 50
  TopColor: {r: 0, g: 0, b: 0, a: 1}
  TopExponent: 0
  HorizonColor: {r: 1, g: 0.2784314, b: 0.85490197, a: 1}
  SkyIntensity: 0.7
  BottomColor: {r: 0.12532441, g: 0.7070048, b: 0.89705884, a: 1}
  BottomExponent: 1.17
