%YAML 1.1
%TAG !u! tag:unity3d.com,2011:
--- !u!114 &11400000
MonoBehaviour:
  m_ObjectHideFlags: 0
  m_PrefabParentObject: {fileID: 0}
  m_PrefabInternal: {fileID: 0}
  m_GameObject: {fileID: 0}
  m_Enabled: 1
  m_EditorHideFlags: 0
  m_Script: {fileID: 11500000, guid: 075bfabdf9548e04ba15838252cae2df, type: 3}
  m_Name: Color3
  m_EditorClassIdentifier: 
  MinLevel: 31
  MaxLevel: 40
  TopColor: {r: 0, g: 0, b: 0, a: 1}
  TopExponent: 0
  HorizonColor: {r: 0.13333334, g: 0.36862746, b: 0.7372549, a: 1}
  SkyIntensity: 1.22
  BottomColor: {r: 0.69803923, g: 0.41960785, b: 0, a: 1}
  BottomExponent: 1.02
