%YAML 1.1
%TAG !u! tag:unity3d.com,2011:
--- !u!114 &11400000
MonoBehaviour:
  m_ObjectHideFlags: 0
  m_PrefabParentObject: {fileID: 0}
  m_PrefabInternal: {fileID: 0}
  m_GameObject: {fileID: 0}
  m_Enabled: 1
  m_EditorHideFlags: 0
  m_Script: {fileID: 11500000, guid: 075bfabdf9548e04ba15838252cae2df, type: 3}
  m_Name: Color5
  m_EditorClassIdentifier: 
  MinLevel: 51
  MaxLevel: 60
  TopColor: {r: 0, g: 0, b: 0, a: 1}
  TopExponent: 0
  HorizonColor: {r: 0.9529412, g: 0.87058824, b: 0.17254902, a: 1}
  SkyIntensity: 1.14
  BottomColor: {r: 0.9843137, g: 0.38039216, b: 0.02745098, a: 1}
  BottomExponent: 3.56
