%YAML 1.1
%TAG !u! tag:unity3d.com,2011:
--- !u!114 &11400000
MonoBehaviour:
  m_ObjectHideFlags: 0
  m_PrefabParentObject: {fileID: 0}
  m_PrefabInternal: {fileID: 0}
  m_GameObject: {fileID: 0}
  m_Enabled: 1
  m_EditorHideFlags: 0
  m_Script: {fileID: 11500000, guid: fdfac07331e216d4ca76456589a146cc, type: 3}
  m_Name: challenge_014
  m_EditorClassIdentifier: 
  levelNumber: 14
  DisabledPieces:
  - pieces: 0b000000050000000600000003000000
  - pieces: 0a000000000000000b000000010000000200000006000000
  - pieces: 070000000a0000000600000008000000
  - pieces: 000000000b00000008000000070000000500000003000000
  - pieces: 05000000070000000300000000000000
  - pieces: 02000000060000000b0000000a0000000300000009000000
  - pieces: 0a0000000b00000004000000060000000500000009000000
  - pieces: 00000000050000000400000003000000
  - pieces: 0b0000000300000001000000000000000900000002000000
  - pieces: 0a00000008000000060000000000000005000000
  - pieces: 0b000000000000000200000007000000
  - pieces: 0a0000000400000002000000060000000700000009000000
  - pieces: 090000000800000007000000060000000200000005000000
  - pieces: 06000000020000000a000000010000000700000003000000
  - pieces: 0b00000002000000050000000400000008000000
  - pieces: 0a000000000000000800000006000000
  - pieces: 01000000080000000a0000000400000007000000
  - pieces: 0b000000080000000000000009000000
  - pieces: 0a0000000600000000000000040000000b000000
  - pieces: 02000000030000000400000005000000
  - pieces: 07000000030000000b0000000a000000
  - pieces: 0b0000000700000003000000040000000a000000
  - pieces: 07000000050000000600000001000000
  - pieces: 
  DeadPieces:
  - pieces: []
  - pieces:
    - piece: 5
      isMovable: 0
      oneDirection: 0
      lerpMov: 0
    - piece: 7
      isMovable: 0
      oneDirection: 0
      lerpMov: 0
    - piece: 9
      isMovable: 0
      oneDirection: 0
      lerpMov: 0
  - pieces:
    - piece: 5
      isMovable: 0
      oneDirection: 0
      lerpMov: 0
    - piece: 0
      isMovable: 0
      oneDirection: 0
      lerpMov: 0
    - piece: 2
      isMovable: 0
      oneDirection: 0
      lerpMov: 0
  - pieces:
    - piece: 1
      isMovable: 0
      oneDirection: 0
      lerpMov: 0
    - piece: 10
      isMovable: 0
      oneDirection: 0
      lerpMov: 0
    - piece: 6
      isMovable: 0
      oneDirection: 0
      lerpMov: 0
  - pieces:
    - piece: 8
      isMovable: 0
      oneDirection: 0
      lerpMov: 0
    - piece: 10
      isMovable: 0
      oneDirection: 0
      lerpMov: 0
    - piece: 11
      isMovable: 0
      oneDirection: 0
      lerpMov: 0
  - pieces:
    - piece: 0
      isMovable: 0
      oneDirection: 0
      lerpMov: 0
    - piece: 8
      isMovable: 0
      oneDirection: 0
      lerpMov: 0
    - piece: 1
      isMovable: 0
      oneDirection: 0
      lerpMov: 0
  - pieces:
    - piece: 1
      isMovable: 0
      oneDirection: 0
      lerpMov: 0
    - piece: 7
      isMovable: 0
      oneDirection: 0
      lerpMov: 0
    - piece: 8
      isMovable: 0
      oneDirection: 0
      lerpMov: 0
  - pieces:
    - piece: 7
      isMovable: 0
      oneDirection: 0
      lerpMov: 0
    - piece: 11
      isMovable: 0
      oneDirection: 0
      lerpMov: 0
    - piece: 2
      isMovable: 0
      oneDirection: 0
      lerpMov: 0
  - pieces:
    - piece: 7
      isMovable: 0
      oneDirection: 0
      lerpMov: 0
    - piece: 10
      isMovable: 0
      oneDirection: 0
      lerpMov: 0
    - piece: 4
      isMovable: 0
      oneDirection: 0
      lerpMov: 0
  - pieces:
    - piece: 3
      isMovable: 0
      oneDirection: 0
      lerpMov: 0
    - piece: 11
      isMovable: 0
      oneDirection: 0
      lerpMov: 0
    - piece: 4
      isMovable: 0
      oneDirection: 0
      lerpMov: 0
  - pieces:
    - piece: 5
      isMovable: 0
      oneDirection: 0
      lerpMov: 0
    - piece: 3
      isMovable: 0
      oneDirection: 0
      lerpMov: 0
    - piece: 10
      isMovable: 0
      oneDirection: 0
      lerpMov: 0
  - pieces:
    - piece: 8
      isMovable: 0
      oneDirection: 0
      lerpMov: 0
    - piece: 0
      isMovable: 0
      oneDirection: 0
      lerpMov: 0
    - piece: 3
      isMovable: 0
      oneDirection: 0
      lerpMov: 0
  - pieces:
    - piece: 11
      isMovable: 0
      oneDirection: 0
      lerpMov: 0
    - piece: 0
      isMovable: 0
      oneDirection: 0
      lerpMov: 0
    - piece: 10
      isMovable: 0
      oneDirection: 0
      lerpMov: 0
  - pieces:
    - piece: 4
      isMovable: 0
      oneDirection: 0
      lerpMov: 0
    - piece: 5
      isMovable: 0
      oneDirection: 0
      lerpMov: 0
    - piece: 0
      isMovable: 0
      oneDirection: 0
      lerpMov: 0
  - pieces:
    - piece: 7
      isMovable: 0
      oneDirection: 0
      lerpMov: 0
    - piece: 1
      isMovable: 0
      oneDirection: 0
      lerpMov: 0
    - piece: 0
      isMovable: 0
      oneDirection: 0
      lerpMov: 0
  - pieces:
    - piece: 4
      isMovable: 0
      oneDirection: 0
      lerpMov: 0
    - piece: 11
      isMovable: 0
      oneDirection: 0
      lerpMov: 0
    - piece: 1
      isMovable: 0
      oneDirection: 0
      lerpMov: 0
  - pieces:
    - piece: 0
      isMovable: 0
      oneDirection: 0
      lerpMov: 0
    - piece: 11
      isMovable: 0
      oneDirection: 0
      lerpMov: 0
    - piece: 5
      isMovable: 0
      oneDirection: 0
      lerpMov: 0
  - pieces:
    - piece: 2
      isMovable: 0
      oneDirection: 0
      lerpMov: 0
    - piece: 6
      isMovable: 0
      oneDirection: 0
      lerpMov: 0
    - piece: 3
      isMovable: 0
      oneDirection: 0
      lerpMov: 0
  - pieces:
    - piece: 2
      isMovable: 0
      oneDirection: 0
      lerpMov: 0
    - piece: 9
      isMovable: 0
      oneDirection: 0
      lerpMov: 0
    - piece: 1
      isMovable: 0
      oneDirection: 0
      lerpMov: 0
  - pieces:
    - piece: 8
      isMovable: 0
      oneDirection: 0
      lerpMov: 0
    - piece: 10
      isMovable: 0
      oneDirection: 0
      lerpMov: 0
    - piece: 11
      isMovable: 0
      oneDirection: 0
      lerpMov: 0
  - pieces:
    - piece: 5
      isMovable: 0
      oneDirection: 0
      lerpMov: 0
    - piece: 9
      isMovable: 0
      oneDirection: 0
      lerpMov: 0
    - piece: 4
      isMovable: 0
      oneDirection: 0
      lerpMov: 0
  - pieces:
    - piece: 9
      isMovable: 0
      oneDirection: 0
      lerpMov: 0
    - piece: 0
      isMovable: 0
      oneDirection: 0
      lerpMov: 0
    - piece: 8
      isMovable: 0
      oneDirection: 0
      lerpMov: 0
  - pieces:
    - piece: 9
      isMovable: 0
      oneDirection: 0
      lerpMov: 0
    - piece: 2
      isMovable: 0
      oneDirection: 0
      lerpMov: 0
    - piece: 11
      isMovable: 0
      oneDirection: 0
      lerpMov: 0
  - pieces: []
  PowerUps:
    Position: []
