%YAML 1.1
%TAG !u! tag:unity3d.com,2011:
--- !u!114 &11400000
MonoBehaviour:
  m_ObjectHideFlags: 0
  m_PrefabParentObject: {fileID: 0}
  m_PrefabInternal: {fileID: 0}
  m_GameObject: {fileID: 0}
  m_Enabled: 1
  m_EditorHideFlags: 0
  m_Script: {fileID: 11500000, guid: fdfac07331e216d4ca76456589a146cc, type: 3}
  m_Name: challenge_009
  m_EditorClassIdentifier: 
  levelNumber: 9
  DisabledPieces:
  - pieces: 0300000007000000040000000b000000
  - pieces: 080000000a000000000000000900000007000000
  - pieces: 030000000100000006000000070000000200000005000000
  - pieces: 09000000070000000300000008000000
  - pieces: 0500000007000000010000000600000004000000
  - pieces: 0100000005000000060000000a00000007000000
  - pieces: 080000000000000006000000030000000a0000000b000000
  - pieces: 050000000700000009000000010000000200000003000000
  - pieces: 0200000001000000000000000b000000070000000a000000
  - pieces: 06000000010000000400000000000000
  - pieces: 020000000700000001000000060000000400000008000000
  - pieces: 0800000005000000020000000b00000000000000
  - pieces: 080000000b0000000500000006000000
  - pieces: 0a00000003000000090000000200000005000000
  - pieces: 0100000000000000080000000300000006000000
  - pieces: 01000000050000000800000007000000020000000b000000
  - pieces: 0900000002000000080000000000000001000000
  - pieces: 0a00000001000000060000000800000004000000
  - pieces: 03000000010000000b000000070000000600000000000000
  - pieces: 
  DeadPieces:
  - pieces: []
  - pieces:
    - piece: 4
      isMovable: 0
      oneDirection: 0
      lerpMov: 0
    - piece: 1
      isMovable: 0
      oneDirection: 0
      lerpMov: 0
  - pieces:
    - piece: 11
      isMovable: 0
      oneDirection: 0
      lerpMov: 0
    - piece: 8
      isMovable: 0
      oneDirection: 0
      lerpMov: 0
  - pieces:
    - piece: 0
      isMovable: 0
      oneDirection: 0
      lerpMov: 0
    - piece: 10
      isMovable: 0
      oneDirection: 0
      lerpMov: 0
  - pieces:
    - piece: 9
      isMovable: 0
      oneDirection: 0
      lerpMov: 0
    - piece: 11
      isMovable: 0
      oneDirection: 0
      lerpMov: 0
  - pieces:
    - piece: 9
      isMovable: 0
      oneDirection: 0
      lerpMov: 0
    - piece: 4
      isMovable: 0
      oneDirection: 0
      lerpMov: 0
  - pieces:
    - piece: 7
      isMovable: 0
      oneDirection: 0
      lerpMov: 0
    - piece: 4
      isMovable: 0
      oneDirection: 0
      lerpMov: 0
  - pieces:
    - piece: 4
      isMovable: 0
      oneDirection: 0
      lerpMov: 0
    - piece: 6
      isMovable: 0
      oneDirection: 0
      lerpMov: 0
  - pieces:
    - piece: 8
      isMovable: 0
      oneDirection: 0
      lerpMov: 0
    - piece: 5
      isMovable: 0
      oneDirection: 0
      lerpMov: 0
  - pieces:
    - piece: 7
      isMovable: 0
      oneDirection: 0
      lerpMov: 0
    - piece: 11
      isMovable: 0
      oneDirection: 0
      lerpMov: 0
  - pieces:
    - piece: 5
      isMovable: 0
      oneDirection: 0
      lerpMov: 0
    - piece: 3
      isMovable: 0
      oneDirection: 0
      lerpMov: 0
  - pieces:
    - piece: 7
      isMovable: 0
      oneDirection: 0
      lerpMov: 0
    - piece: 6
      isMovable: 0
      oneDirection: 0
      lerpMov: 0
  - pieces:
    - piece: 0
      isMovable: 0
      oneDirection: 0
      lerpMov: 0
    - piece: 1
      isMovable: 0
      oneDirection: 0
      lerpMov: 0
  - pieces:
    - piece: 0
      isMovable: 0
      oneDirection: 0
      lerpMov: 0
    - piece: 1
      isMovable: 0
      oneDirection: 0
      lerpMov: 0
  - pieces:
    - piece: 2
      isMovable: 0
      oneDirection: 0
      lerpMov: 0
    - piece: 5
      isMovable: 0
      oneDirection: 0
      lerpMov: 0
  - pieces:
    - piece: 6
      isMovable: 0
      oneDirection: 0
      lerpMov: 0
    - piece: 4
      isMovable: 0
      oneDirection: 0
      lerpMov: 0
  - pieces:
    - piece: 7
      isMovable: 0
      oneDirection: 0
      lerpMov: 0
    - piece: 4
      isMovable: 0
      oneDirection: 0
      lerpMov: 0
  - pieces:
    - piece: 7
      isMovable: 0
      oneDirection: 0
      lerpMov: 0
    - piece: 2
      isMovable: 0
      oneDirection: 0
      lerpMov: 0
  - pieces:
    - piece: 5
      isMovable: 0
      oneDirection: 0
      lerpMov: 0
    - piece: 2
      isMovable: 0
      oneDirection: 0
      lerpMov: 0
  - pieces: []
  PowerUps:
    Position: []
