%YAML 1.1
%TAG !u! tag:unity3d.com,2011:
--- !u!114 &11400000
MonoBehaviour:
  m_ObjectHideFlags: 0
  m_PrefabParentObject: {fileID: 0}
  m_PrefabInternal: {fileID: 0}
  m_GameObject: {fileID: 0}
  m_Enabled: 1
  m_EditorHideFlags: 0
  m_Script: {fileID: 11500000, guid: fdfac07331e216d4ca76456589a146cc, type: 3}
  m_Name: challenge_007
  m_EditorClassIdentifier: 
  levelNumber: 7
  DisabledPieces:
  - pieces: 06000000080000000200000000000000
  - pieces: 080000000a000000020000000000000009000000
  - pieces: 0b00000000000000030000000a0000000400000006000000
  - pieces: 010000000a000000000000000700000002000000
  - pieces: 0b000000040000000800000001000000
  - pieces: 060000000900000002000000050000000a000000
  - pieces: 05000000040000000200000003000000
  - pieces: 050000000300000007000000040000000b000000
  - pieces: 0800000009000000020000000400000007000000
  - pieces: 06000000000000000700000004000000
  - pieces: 0a0000000100000003000000000000000500000006000000
  - pieces: 060000000400000003000000050000000900000007000000
  - pieces: 09000000010000000000000007000000
  - pieces: 0a000000070000000b0000000200000005000000
  - pieces: 04000000050000000a000000010000000000000002000000
  - pieces: 080000000900000004000000020000000a000000
  - pieces: 0b00000007000000080000000a000000
  - pieces: 
  DeadPieces:
  - pieces: []
  - pieces:
    - piece: 11
      isMovable: 0
      oneDirection: 0
      lerpMov: 0
    - piece: 4
      isMovable: 0
      oneDirection: 0
      lerpMov: 0
  - pieces:
    - piece: 1
      isMovable: 0
      oneDirection: 0
      lerpMov: 0
    - piece: 8
      isMovable: 0
      oneDirection: 0
      lerpMov: 0
  - pieces:
    - piece: 8
      isMovable: 0
      oneDirection: 0
      lerpMov: 0
    - piece: 11
      isMovable: 0
      oneDirection: 0
      lerpMov: 0
  - pieces:
    - piece: 9
      isMovable: 0
      oneDirection: 0
      lerpMov: 0
    - piece: 2
      isMovable: 0
      oneDirection: 0
      lerpMov: 0
  - pieces:
    - piece: 7
      isMovable: 0
      oneDirection: 0
      lerpMov: 0
    - piece: 3
      isMovable: 0
      oneDirection: 0
      lerpMov: 0
  - pieces:
    - piece: 7
      isMovable: 0
      oneDirection: 0
      lerpMov: 0
    - piece: 6
      isMovable: 0
      oneDirection: 0
      lerpMov: 0
  - pieces:
    - piece: 9
      isMovable: 0
      oneDirection: 0
      lerpMov: 0
    - piece: 0
      isMovable: 0
      oneDirection: 0
      lerpMov: 0
  - pieces:
    - piece: 6
      isMovable: 0
      oneDirection: 0
      lerpMov: 0
    - piece: 11
      isMovable: 0
      oneDirection: 0
      lerpMov: 0
  - pieces:
    - piece: 10
      isMovable: 0
      oneDirection: 0
      lerpMov: 0
    - piece: 2
      isMovable: 0
      oneDirection: 0
      lerpMov: 0
  - pieces:
    - piece: 2
      isMovable: 0
      oneDirection: 0
      lerpMov: 0
    - piece: 7
      isMovable: 0
      oneDirection: 0
      lerpMov: 0
  - pieces:
    - piece: 11
      isMovable: 0
      oneDirection: 0
      lerpMov: 0
    - piece: 1
      isMovable: 0
      oneDirection: 0
      lerpMov: 0
  - pieces:
    - piece: 10
      isMovable: 0
      oneDirection: 0
      lerpMov: 0
    - piece: 5
      isMovable: 0
      oneDirection: 0
      lerpMov: 0
  - pieces:
    - piece: 3
      isMovable: 0
      oneDirection: 0
      lerpMov: 0
    - piece: 8
      isMovable: 0
      oneDirection: 0
      lerpMov: 0
  - pieces:
    - piece: 8
      isMovable: 0
      oneDirection: 0
      lerpMov: 0
    - piece: 3
      isMovable: 0
      oneDirection: 0
      lerpMov: 0
  - pieces:
    - piece: 6
      isMovable: 0
      oneDirection: 0
      lerpMov: 0
    - piece: 0
      isMovable: 0
      oneDirection: 0
      lerpMov: 0
  - pieces:
    - piece: 5
      isMovable: 0
      oneDirection: 0
      lerpMov: 0
    - piece: 2
      isMovable: 0
      oneDirection: 0
      lerpMov: 0
  - pieces: []
  PowerUps:
    Position: []
