%YAML 1.1
%TAG !u! tag:unity3d.com,2011:
--- !u!114 &11400000
MonoBehaviour:
  m_ObjectHideFlags: 0
  m_PrefabParentObject: {fileID: 0}
  m_PrefabInternal: {fileID: 0}
  m_GameObject: {fileID: 0}
  m_Enabled: 1
  m_EditorHideFlags: 0
  m_Script: {fileID: 11500000, guid: fdfac07331e216d4ca76456589a146cc, type: 3}
  m_Name: challenge_053
  m_EditorClassIdentifier: 
  levelNumber: 53
  DisabledPieces:
  - pieces: 0300000000000000
  - pieces: 0400000002000000
  - pieces: 050000000200000001000000040000000b000000
  - pieces: 020000000b000000070000000a00000008000000
  - pieces: 0700000008000000
  - pieces: 0400000002000000010000000a000000
  - pieces: 0300000005000000
  - pieces: 060000000500000008000000
  - pieces: 09000000070000000400000001000000
  - pieces: 0b00000007000000
  - pieces: 050000000b0000000a00000006000000
  - pieces: 030000000b0000000200000004000000
  - pieces: 060000000500000003000000
  - pieces: 0a00000005000000
  - pieces: 080000000a000000
  - pieces: 0900000005000000
  - pieces: 090000000000000003000000
  - pieces: 06000000070000000b00000005000000
  - pieces: 010000000b00000003000000
  - pieces: 0900000003000000
  - pieces: 01000000020000000b00000005000000
  - pieces: 050000000100000000000000
  - pieces: 090000000a00000003000000
  - pieces: 0b000000080000000400000002000000
  - pieces: 040000000700000001000000090000000b000000
  - pieces: 0100000007000000
  - pieces: 0600000003000000010000000b000000
  - pieces: 0500000007000000020000000800000000000000
  - pieces: 0100000000000000
  - pieces: 0600000009000000020000000100000000000000
  - pieces: 0200000000000000
  - pieces: 040000000b000000
  - pieces: 
  DeadPieces:
  - pieces: []
  - pieces:
    - piece: 7
      isMovable: 1
      oneDirection: 1
      lerpMov: 1
  - pieces:
    - piece: 10
      isMovable: 1
      oneDirection: 1
      lerpMov: 1
  - pieces:
    - piece: 3
      isMovable: 1
      oneDirection: 1
      lerpMov: 1
  - pieces:
    - piece: 11
      isMovable: 1
      oneDirection: 1
      lerpMov: 1
  - pieces:
    - piece: 6
      isMovable: 1
      oneDirection: 1
      lerpMov: 1
  - pieces:
    - piece: 8
      isMovable: 1
      oneDirection: 1
      lerpMov: 1
  - pieces:
    - piece: 9
      isMovable: 0
      oneDirection: 1
      lerpMov: 1
  - pieces:
    - piece: 6
      isMovable: 1
      oneDirection: 1
      lerpMov: 1
  - pieces:
    - piece: 10
      isMovable: 0
      oneDirection: 1
      lerpMov: 1
  - pieces:
    - piece: 7
      isMovable: 1
      oneDirection: 1
      lerpMov: 1
  - pieces:
    - piece: 0
      isMovable: 1
      oneDirection: 1
      lerpMov: 1
  - pieces:
    - piece: 4
      isMovable: 1
      oneDirection: 1
      lerpMov: 1
  - pieces:
    - piece: 0
      isMovable: 1
      oneDirection: 1
      lerpMov: 1
  - pieces:
    - piece: 5
      isMovable: 1
      oneDirection: 1
      lerpMov: 1
  - pieces:
    - piece: 2
      isMovable: 1
      oneDirection: 1
      lerpMov: 1
  - pieces:
    - piece: 11
      isMovable: 1
      oneDirection: 1
      lerpMov: 1
  - pieces:
    - piece: 0
      isMovable: 0
      oneDirection: 1
      lerpMov: 1
  - pieces:
    - piece: 10
      isMovable: 1
      oneDirection: 1
      lerpMov: 1
  - pieces:
    - piece: 2
      isMovable: 1
      oneDirection: 1
      lerpMov: 1
  - pieces:
    - piece: 0
      isMovable: 1
      oneDirection: 1
      lerpMov: 1
  - pieces:
    - piece: 9
      isMovable: 1
      oneDirection: 1
      lerpMov: 1
  - pieces:
    - piece: 8
      isMovable: 1
      oneDirection: 1
      lerpMov: 1
  - pieces:
    - piece: 5
      isMovable: 1
      oneDirection: 1
      lerpMov: 1
  - pieces:
    - piece: 0
      isMovable: 1
      oneDirection: 1
      lerpMov: 1
  - pieces:
    - piece: 4
      isMovable: 0
      oneDirection: 1
      lerpMov: 1
  - pieces:
    - piece: 2
      isMovable: 1
      oneDirection: 1
      lerpMov: 1
  - pieces:
    - piece: 6
      isMovable: 1
      oneDirection: 1
      lerpMov: 1
  - pieces:
    - piece: 8
      isMovable: 0
      oneDirection: 1
      lerpMov: 1
  - pieces:
    - piece: 10
      isMovable: 1
      oneDirection: 1
      lerpMov: 1
  - pieces:
    - piece: 5
      isMovable: 1
      oneDirection: 1
      lerpMov: 1
  - pieces:
    - piece: 2
      isMovable: 1
      oneDirection: 1
      lerpMov: 1
  - pieces: []
  PowerUps:
    Position:
    - HelixNumber: 7
      PieceNumber: 6
