%YAML 1.1
%TAG !u! tag:unity3d.com,2011:
--- !u!114 &11400000
MonoBehaviour:
  m_ObjectHideFlags: 0
  m_PrefabParentObject: {fileID: 0}
  m_PrefabInternal: {fileID: 0}
  m_GameObject: {fileID: 0}
  m_Enabled: 1
  m_EditorHideFlags: 0
  m_Script: {fileID: 11500000, guid: fdfac07331e216d4ca76456589a146cc, type: 3}
  m_Name: challenge_035
  m_EditorClassIdentifier: 
  levelNumber: 35
  DisabledPieces:
  - pieces: 070000000500000008000000
  - pieces: 020000000400000008000000
  - pieces: 0a0000000800000000000000
  - pieces: 0900000002000000010000000000000008000000
  - pieces: 080000000900000001000000
  - pieces: 0b000000090000000a000000
  - pieces: 09000000040000000700000000000000
  - pieces: 030000000200000005000000
  - pieces: 02000000070000000a0000000300000008000000
  - pieces: 00000000090000000a000000
  - pieces: 0900000000000000080000000500000001000000
  - pieces: 000000000700000005000000020000000b000000
  - pieces: 020000000a000000070000000900000001000000
  - pieces: 0b00000005000000080000000a00000009000000
  - pieces: 03000000020000000b000000
  - pieces: 030000000b0000000a000000
  - pieces: 00000000080000000500000006000000
  - pieces: 020000000900000004000000
  - pieces: 07000000050000000400000008000000
  - pieces: 000000000a00000009000000
  - pieces: 08000000010000000700000000000000
  - pieces: 040000000000000008000000
  - pieces: 060000000200000007000000
  - pieces: 0700000002000000090000000b000000
  - pieces: 0400000005000000030000000a000000
  - pieces: 0500000009000000040000000a000000
  - pieces: 07000000020000000900000005000000
  - pieces: 0a00000004000000030000000b000000
  - pieces: 020000000300000007000000
  - pieces: 
  DeadPieces:
  - pieces: []
  - pieces:
    - piece: 3
      isMovable: 1
      oneDirection: 0
      lerpMov: 1
  - pieces:
    - piece: 1
      isMovable: 1
      oneDirection: 0
      lerpMov: 1
  - pieces:
    - piece: 7
      isMovable: 1
      oneDirection: 0
      lerpMov: 1
  - pieces:
    - piece: 11
      isMovable: 0
      oneDirection: 0
      lerpMov: 1
  - pieces:
    - piece: 6
      isMovable: 1
      oneDirection: 0
      lerpMov: 1
  - pieces:
    - piece: 8
      isMovable: 1
      oneDirection: 0
      lerpMov: 1
  - pieces:
    - piece: 1
      isMovable: 1
      oneDirection: 0
      lerpMov: 1
  - pieces:
    - piece: 1
      isMovable: 0
      oneDirection: 0
      lerpMov: 1
  - pieces:
    - piece: 6
      isMovable: 1
      oneDirection: 0
      lerpMov: 1
  - pieces:
    - piece: 10
      isMovable: 1
      oneDirection: 0
      lerpMov: 1
  - pieces:
    - piece: 9
      isMovable: 1
      oneDirection: 0
      lerpMov: 1
  - pieces:
    - piece: 4
      isMovable: 1
      oneDirection: 0
      lerpMov: 1
  - pieces:
    - piece: 1
      isMovable: 1
      oneDirection: 0
      lerpMov: 1
  - pieces:
    - piece: 9
      isMovable: 1
      oneDirection: 0
      lerpMov: 1
  - pieces:
    - piece: 0
      isMovable: 1
      oneDirection: 0
      lerpMov: 1
  - pieces:
    - piece: 7
      isMovable: 0
      oneDirection: 0
      lerpMov: 1
  - pieces:
    - piece: 8
      isMovable: 1
      oneDirection: 0
      lerpMov: 1
  - pieces:
    - piece: 3
      isMovable: 1
      oneDirection: 0
      lerpMov: 1
  - pieces:
    - piece: 4
      isMovable: 1
      oneDirection: 0
      lerpMov: 1
  - pieces:
    - piece: 6
      isMovable: 0
      oneDirection: 0
      lerpMov: 1
  - pieces:
    - piece: 5
      isMovable: 1
      oneDirection: 0
      lerpMov: 1
  - pieces:
    - piece: 8
      isMovable: 1
      oneDirection: 0
      lerpMov: 1
  - pieces:
    - piece: 1
      isMovable: 1
      oneDirection: 0
      lerpMov: 1
  - pieces:
    - piece: 2
      isMovable: 1
      oneDirection: 0
      lerpMov: 1
  - pieces:
    - piece: 6
      isMovable: 0
      oneDirection: 0
      lerpMov: 1
  - pieces:
    - piece: 1
      isMovable: 1
      oneDirection: 0
      lerpMov: 1
  - pieces:
    - piece: 9
      isMovable: 0
      oneDirection: 0
      lerpMov: 1
  - pieces:
    - piece: 5
      isMovable: 1
      oneDirection: 0
      lerpMov: 1
  - pieces: []
  PowerUps:
    Position:
    - HelixNumber: 6
      PieceNumber: 8
