%YAML 1.1
%TAG !u! tag:unity3d.com,2011:
--- !u!114 &11400000
MonoBehaviour:
  m_ObjectHideFlags: 0
  m_PrefabParentObject: {fileID: 0}
  m_PrefabInternal: {fileID: 0}
  m_GameObject: {fileID: 0}
  m_Enabled: 1
  m_EditorHideFlags: 0
  m_Script: {fileID: 11500000, guid: fdfac07331e216d4ca76456589a146cc, type: 3}
  m_Name: challenge_034
  m_EditorClassIdentifier: 
  levelNumber: 34
  DisabledPieces:
  - pieces: 0a0000000900000008000000
  - pieces: 080000000a0000000900000001000000
  - pieces: 030000000800000009000000
  - pieces: 0000000002000000010000000300000004000000
  - pieces: 050000000b000000010000000400000006000000
  - pieces: 010000000900000007000000
  - pieces: 01000000050000000000000007000000
  - pieces: 060000000700000002000000
  - pieces: 060000000300000009000000
  - pieces: 0700000002000000090000000300000006000000
  - pieces: 020000000900000005000000030000000a000000
  - pieces: 09000000030000000b000000
  - pieces: 0500000002000000080000000000000003000000
  - pieces: 0000000003000000020000000400000008000000
  - pieces: 010000000900000003000000
  - pieces: 010000000a0000000700000002000000
  - pieces: 050000000300000006000000090000000b000000
  - pieces: 0b0000000800000001000000
  - pieces: 0200000003000000060000000000000009000000
  - pieces: 020000000500000001000000
  - pieces: 040000000000000007000000
  - pieces: 000000000900000003000000
  - pieces: 000000000900000005000000
  - pieces: 08000000010000000500000004000000
  - pieces: 010000000a000000080000000b00000009000000
  - pieces: 030000000a000000070000000000000006000000
  - pieces: 0000000001000000050000000b00000006000000
  - pieces: 08000000010000000300000006000000
  - pieces: 
  DeadPieces:
  - pieces: []
  - pieces:
    - piece: 0
      isMovable: 1
      oneDirection: 0
      lerpMov: 1
  - pieces:
    - piece: 2
      isMovable: 1
      oneDirection: 0
      lerpMov: 1
  - pieces:
    - piece: 8
      isMovable: 1
      oneDirection: 0
      lerpMov: 1
  - pieces:
    - piece: 3
      isMovable: 0
      oneDirection: 0
      lerpMov: 1
  - pieces:
    - piece: 8
      isMovable: 0
      oneDirection: 0
      lerpMov: 1
  - pieces:
    - piece: 10
      isMovable: 0
      oneDirection: 0
      lerpMov: 1
  - pieces:
    - piece: 3
      isMovable: 1
      oneDirection: 0
      lerpMov: 1
  - pieces:
    - piece: 5
      isMovable: 1
      oneDirection: 0
      lerpMov: 1
  - pieces:
    - piece: 4
      isMovable: 1
      oneDirection: 0
      lerpMov: 1
  - pieces:
    - piece: 1
      isMovable: 1
      oneDirection: 0
      lerpMov: 1
  - pieces:
    - piece: 5
      isMovable: 1
      oneDirection: 0
      lerpMov: 1
  - pieces:
    - piece: 9
      isMovable: 1
      oneDirection: 0
      lerpMov: 1
  - pieces:
    - piece: 6
      isMovable: 0
      oneDirection: 0
      lerpMov: 1
  - pieces:
    - piece: 5
      isMovable: 1
      oneDirection: 0
      lerpMov: 1
  - pieces:
    - piece: 3
      isMovable: 1
      oneDirection: 0
      lerpMov: 1
  - pieces:
    - piece: 4
      isMovable: 0
      oneDirection: 0
      lerpMov: 1
  - pieces:
    - piece: 2
      isMovable: 1
      oneDirection: 0
      lerpMov: 1
  - pieces:
    - piece: 1
      isMovable: 1
      oneDirection: 0
      lerpMov: 1
  - pieces:
    - piece: 9
      isMovable: 1
      oneDirection: 0
      lerpMov: 1
  - pieces:
    - piece: 9
      isMovable: 0
      oneDirection: 0
      lerpMov: 1
  - pieces:
    - piece: 6
      isMovable: 1
      oneDirection: 0
      lerpMov: 1
  - pieces:
    - piece: 10
      isMovable: 1
      oneDirection: 0
      lerpMov: 1
  - pieces:
    - piece: 2
      isMovable: 0
      oneDirection: 0
      lerpMov: 1
  - pieces:
    - piece: 0
      isMovable: 1
      oneDirection: 0
      lerpMov: 1
  - pieces:
    - piece: 11
      isMovable: 1
      oneDirection: 0
      lerpMov: 1
  - pieces:
    - piece: 2
      isMovable: 0
      oneDirection: 0
      lerpMov: 1
  - pieces:
    - piece: 5
      isMovable: 0
      oneDirection: 0
      lerpMov: 1
  - pieces: []
  PowerUps:
    Position:
    - HelixNumber: 8
      PieceNumber: 4
