%YAML 1.1
%TAG !u! tag:unity3d.com,2011:
--- !u!114 &11400000
MonoBehaviour:
  m_ObjectHideFlags: 0
  m_PrefabParentObject: {fileID: 0}
  m_PrefabInternal: {fileID: 0}
  m_GameObject: {fileID: 0}
  m_Enabled: 1
  m_EditorHideFlags: 0
  m_Script: {fileID: 11500000, guid: fdfac07331e216d4ca76456589a146cc, type: 3}
  m_Name: challenge_030
  m_EditorClassIdentifier: 
  levelNumber: 30
  DisabledPieces:
  - pieces: 05000000060000000700000008000000
  - pieces: 05000000060000000700000008000000
  - pieces: 05000000060000000700000008000000
  - pieces: 05000000060000000700000008000000
  - pieces: 05000000060000000700000008000000
  - pieces: 05000000060000000700000008000000
  - pieces: 05000000060000000700000008000000
  - pieces: 05000000060000000700000008000000
  - pieces: 05000000060000000700000008000000
  - pieces: 05000000060000000700000008000000
  - pieces: 05000000060000000700000008000000
  - pieces: 04000000050000000600000007000000
  - pieces: 03000000040000000500000006000000
  - pieces: 02000000030000000400000005000000
  - pieces: 01000000020000000300000004000000
  - pieces: 00000000010000000200000003000000
  - pieces: 0000000001000000020000000b000000
  - pieces: 00000000010000000a0000000b000000
  - pieces: 00000000090000000a0000000b000000
  - pieces: 00000000090000000a0000000b000000
  - pieces: 00000000090000000a0000000b000000
  - pieces: 00000000090000000a0000000b000000
  - pieces: 00000000090000000a0000000b000000
  - pieces: 00000000090000000a0000000b000000
  - pieces: 00000000090000000a0000000b000000
  - pieces: 00000000010000000a0000000b000000
  - pieces: 0000000001000000020000000b000000
  - pieces: 00000000010000000200000003000000
  - pieces: 01000000020000000300000004000000
  - pieces: 02000000030000000400000005000000
  - pieces: 03000000040000000500000006000000
  - pieces: 04000000050000000600000007000000
  - pieces: 05000000060000000700000008000000
  - pieces: 05000000060000000700000008000000
  - pieces: 06000000070000000800000009000000
  - pieces: 
  DeadPieces:
  - pieces: []
  - pieces: []
  - pieces: []
  - pieces: []
  - pieces: []
  - pieces: []
  - pieces: []
  - pieces: []
  - pieces: []
  - pieces: []
  - pieces: []
  - pieces: []
  - pieces: []
  - pieces: []
  - pieces: []
  - pieces: []
  - pieces: []
  - pieces: []
  - pieces: []
  - pieces: []
  - pieces: []
  - pieces: []
  - pieces: []
  - pieces: []
  - pieces: []
  - pieces: []
  - pieces: []
  - pieces: []
  - pieces: []
  - pieces: []
  - pieces: []
  - pieces: []
  - pieces: []
  - pieces: []
  - pieces: []
  - pieces: []
  PowerUps:
    Position: []
