%YAML 1.1
%TAG !u! tag:unity3d.com,2011:
--- !u!114 &11400000
MonoBehaviour:
  m_ObjectHideFlags: 0
  m_PrefabParentObject: {fileID: 0}
  m_PrefabInternal: {fileID: 0}
  m_GameObject: {fileID: 0}
  m_Enabled: 1
  m_EditorHideFlags: 0
  m_Script: {fileID: 11500000, guid: fdfac07331e216d4ca76456589a146cc, type: 3}
  m_Name: challenge_011
  m_EditorClassIdentifier: 
  levelNumber: 11
  DisabledPieces:
  - pieces: 00000000060000000300000008000000
  - pieces: 0000000007000000090000000a00000008000000
  - pieces: 000000000700000002000000030000000600000005000000
  - pieces: 060000000800000002000000010000000b00000009000000
  - pieces: 0000000004000000090000000a000000
  - pieces: 08000000010000000900000006000000
  - pieces: 010000000a0000000b0000000200000005000000
  - pieces: 040000000500000009000000060000000a00000008000000
  - pieces: 040000000a000000020000000b00000006000000
  - pieces: 0600000005000000040000000200000009000000
  - pieces: 0100000003000000000000000a0000000b00000004000000
  - pieces: 0700000004000000050000000a000000
  - pieces: 0600000001000000080000000b000000
  - pieces: 08000000040000000a0000000100000000000000
  - pieces: 060000000b0000000000000003000000
  - pieces: 02000000040000000b00000009000000
  - pieces: 0600000001000000090000000a000000
  - pieces: 07000000020000000900000005000000040000000a000000
  - pieces: 050000000a0000000400000001000000
  - pieces: 09000000070000000b0000000500000000000000
  - pieces: 
  DeadPieces:
  - pieces: []
  - pieces:
    - piece: 4
      isMovable: 0
      oneDirection: 0
      lerpMov: 0
    - piece: 3
      isMovable: 0
      oneDirection: 0
      lerpMov: 0
  - pieces:
    - piece: 9
      isMovable: 0
      oneDirection: 0
      lerpMov: 0
    - piece: 10
      isMovable: 0
      oneDirection: 0
      lerpMov: 0
  - pieces:
    - piece: 4
      isMovable: 0
      oneDirection: 0
      lerpMov: 0
    - piece: 5
      isMovable: 0
      oneDirection: 0
      lerpMov: 0
  - pieces:
    - piece: 11
      isMovable: 0
      oneDirection: 0
      lerpMov: 0
    - piece: 6
      isMovable: 0
      oneDirection: 0
      lerpMov: 0
  - pieces:
    - piece: 11
      isMovable: 0
      oneDirection: 0
      lerpMov: 0
    - piece: 2
      isMovable: 0
      oneDirection: 0
      lerpMov: 0
  - pieces:
    - piece: 6
      isMovable: 0
      oneDirection: 0
      lerpMov: 0
    - piece: 3
      isMovable: 0
      oneDirection: 0
      lerpMov: 0
  - pieces:
    - piece: 1
      isMovable: 0
      oneDirection: 0
      lerpMov: 0
    - piece: 2
      isMovable: 0
      oneDirection: 0
      lerpMov: 0
  - pieces:
    - piece: 1
      isMovable: 0
      oneDirection: 0
      lerpMov: 0
    - piece: 9
      isMovable: 0
      oneDirection: 0
      lerpMov: 0
  - pieces:
    - piece: 8
      isMovable: 0
      oneDirection: 0
      lerpMov: 0
    - piece: 0
      isMovable: 0
      oneDirection: 0
      lerpMov: 0
  - pieces:
    - piece: 7
      isMovable: 0
      oneDirection: 0
      lerpMov: 0
    - piece: 6
      isMovable: 0
      oneDirection: 0
      lerpMov: 0
  - pieces:
    - piece: 3
      isMovable: 0
      oneDirection: 0
      lerpMov: 0
    - piece: 6
      isMovable: 0
      oneDirection: 0
      lerpMov: 0
  - pieces:
    - piece: 10
      isMovable: 0
      oneDirection: 0
      lerpMov: 0
    - piece: 2
      isMovable: 0
      oneDirection: 0
      lerpMov: 0
  - pieces:
    - piece: 7
      isMovable: 0
      oneDirection: 0
      lerpMov: 0
    - piece: 2
      isMovable: 0
      oneDirection: 0
      lerpMov: 0
  - pieces:
    - piece: 9
      isMovable: 0
      oneDirection: 0
      lerpMov: 0
    - piece: 2
      isMovable: 0
      oneDirection: 0
      lerpMov: 0
  - pieces:
    - piece: 7
      isMovable: 0
      oneDirection: 0
      lerpMov: 0
    - piece: 1
      isMovable: 0
      oneDirection: 0
      lerpMov: 0
  - pieces:
    - piece: 0
      isMovable: 0
      oneDirection: 0
      lerpMov: 0
    - piece: 7
      isMovable: 0
      oneDirection: 0
      lerpMov: 0
  - pieces:
    - piece: 6
      isMovable: 0
      oneDirection: 0
      lerpMov: 0
    - piece: 0
      isMovable: 0
      oneDirection: 0
      lerpMov: 0
  - pieces:
    - piece: 6
      isMovable: 0
      oneDirection: 0
      lerpMov: 0
    - piece: 8
      isMovable: 0
      oneDirection: 0
      lerpMov: 0
  - pieces:
    - piece: 1
      isMovable: 0
      oneDirection: 0
      lerpMov: 0
    - piece: 4
      isMovable: 0
      oneDirection: 0
      lerpMov: 0
  - pieces: []
  PowerUps:
    Position: []
