%YAML 1.1
%TAG !u! tag:unity3d.com,2011:
--- !u!114 &11400000
MonoBehaviour:
  m_ObjectHideFlags: 0
  m_PrefabParentObject: {fileID: 0}
  m_PrefabInternal: {fileID: 0}
  m_GameObject: {fileID: 0}
  m_Enabled: 1
  m_EditorHideFlags: 0
  m_Script: {fileID: 11500000, guid: fdfac07331e216d4ca76456589a146cc, type: 3}
  m_Name: challenge_047
  m_EditorClassIdentifier: 
  levelNumber: 47
  DisabledPieces:
  - pieces: 0a0000000400000003000000
  - pieces: 0b00000000000000080000000600000009000000
  - pieces: 08000000060000000b0000000a00000000000000
  - pieces: 060000000000000003000000
  - pieces: 030000000200000004000000
  - pieces: 050000000900000002000000
  - pieces: 0a000000050000000000000001000000
  - pieces: 00000000010000000500000008000000
  - pieces: 0600000009000000050000000700000003000000
  - pieces: 020000000a0000000300000008000000
  - pieces: 030000000a000000090000000100000006000000
  - pieces: 040000000700000002000000
  - pieces: 0800000004000000060000000900000000000000
  - pieces: 05000000030000000200000000000000
  - pieces: 0400000001000000000000000700000008000000
  - pieces: 0700000000000000060000000a00000002000000
  - pieces: 05000000000000000100000007000000
  - pieces: 0b000000020000000900000004000000
  - pieces: 0a0000000600000007000000
  - pieces: 0600000002000000090000000b00000004000000
  - pieces: 0400000003000000070000000a000000
  - pieces: 05000000090000000a00000006000000
  - pieces: 0a0000000300000004000000
  - pieces: 04000000000000000a00000007000000
  - pieces: 030000000b00000001000000
  - pieces: 0a000000050000000600000002000000
  - pieces: 040000000600000002000000
  - pieces: 0500000004000000090000000b000000
  - pieces: 0b000000080000000a0000000500000000000000
  - pieces: 07000000060000000b0000000200000001000000
  - pieces: 070000000200000008000000
  - pieces: 06000000040000000a0000000000000002000000
  - pieces: 
  DeadPieces:
  - pieces: []
  - pieces:
    - piece: 4
      isMovable: 1
      oneDirection: 1
      lerpMov: 0
    - piece: 5
      isMovable: 1
      oneDirection: 1
      lerpMov: 0
  - pieces:
    - piece: 9
      isMovable: 1
      oneDirection: 1
      lerpMov: 0
    - piece: 5
      isMovable: 1
      oneDirection: 1
      lerpMov: 0
  - pieces:
    - piece: 4
      isMovable: 1
      oneDirection: 1
      lerpMov: 0
    - piece: 9
      isMovable: 1
      oneDirection: 1
      lerpMov: 0
  - pieces:
    - piece: 7
      isMovable: 1
      oneDirection: 1
      lerpMov: 0
    - piece: 0
      isMovable: 1
      oneDirection: 1
      lerpMov: 0
  - pieces:
    - piece: 8
      isMovable: 1
      oneDirection: 1
      lerpMov: 0
    - piece: 0
      isMovable: 1
      oneDirection: 1
      lerpMov: 0
  - pieces:
    - piece: 8
      isMovable: 1
      oneDirection: 1
      lerpMov: 0
    - piece: 6
      isMovable: 1
      oneDirection: 1
      lerpMov: 0
  - pieces:
    - piece: 3
      isMovable: 1
      oneDirection: 1
      lerpMov: 0
    - piece: 10
      isMovable: 0
      oneDirection: 1
      lerpMov: 0
  - pieces:
    - piece: 8
      isMovable: 0
      oneDirection: 1
      lerpMov: 0
    - piece: 4
      isMovable: 1
      oneDirection: 1
      lerpMov: 0
  - pieces:
    - piece: 4
      isMovable: 0
      oneDirection: 1
      lerpMov: 0
    - piece: 7
      isMovable: 1
      oneDirection: 1
      lerpMov: 0
  - pieces:
    - piece: 7
      isMovable: 1
      oneDirection: 1
      lerpMov: 0
    - piece: 0
      isMovable: 1
      oneDirection: 1
      lerpMov: 0
  - pieces:
    - piece: 11
      isMovable: 1
      oneDirection: 1
      lerpMov: 0
    - piece: 8
      isMovable: 1
      oneDirection: 1
      lerpMov: 0
  - pieces:
    - piece: 10
      isMovable: 1
      oneDirection: 1
      lerpMov: 0
    - piece: 1
      isMovable: 1
      oneDirection: 1
      lerpMov: 0
  - pieces:
    - piece: 8
      isMovable: 1
      oneDirection: 1
      lerpMov: 0
    - piece: 1
      isMovable: 1
      oneDirection: 1
      lerpMov: 0
  - pieces:
    - piece: 9
      isMovable: 1
      oneDirection: 1
      lerpMov: 0
    - piece: 6
      isMovable: 1
      oneDirection: 1
      lerpMov: 0
  - pieces:
    - piece: 11
      isMovable: 1
      oneDirection: 1
      lerpMov: 0
    - piece: 1
      isMovable: 1
      oneDirection: 1
      lerpMov: 0
  - pieces:
    - piece: 6
      isMovable: 1
      oneDirection: 1
      lerpMov: 0
    - piece: 9
      isMovable: 0
      oneDirection: 1
      lerpMov: 0
  - pieces:
    - piece: 3
      isMovable: 1
      oneDirection: 1
      lerpMov: 0
    - piece: 8
      isMovable: 1
      oneDirection: 1
      lerpMov: 0
  - pieces:
    - piece: 3
      isMovable: 1
      oneDirection: 1
      lerpMov: 0
    - piece: 5
      isMovable: 1
      oneDirection: 1
      lerpMov: 0
  - pieces:
    - piece: 7
      isMovable: 0
      oneDirection: 1
      lerpMov: 0
    - piece: 0
      isMovable: 1
      oneDirection: 1
      lerpMov: 0
  - pieces:
    - piece: 1
      isMovable: 1
      oneDirection: 1
      lerpMov: 0
    - piece: 6
      isMovable: 1
      oneDirection: 1
      lerpMov: 0
  - pieces:
    - piece: 0
      isMovable: 1
      oneDirection: 1
      lerpMov: 0
    - piece: 11
      isMovable: 0
      oneDirection: 1
      lerpMov: 0
  - pieces:
    - piece: 5
      isMovable: 1
      oneDirection: 1
      lerpMov: 0
    - piece: 1
      isMovable: 1
      oneDirection: 1
      lerpMov: 0
  - pieces:
    - piece: 6
      isMovable: 1
      oneDirection: 1
      lerpMov: 0
    - piece: 1
      isMovable: 1
      oneDirection: 1
      lerpMov: 0
  - pieces:
    - piece: 8
      isMovable: 0
      oneDirection: 1
      lerpMov: 0
    - piece: 5
      isMovable: 1
      oneDirection: 1
      lerpMov: 0
  - pieces:
    - piece: 0
      isMovable: 1
      oneDirection: 1
      lerpMov: 0
    - piece: 8
      isMovable: 1
      oneDirection: 1
      lerpMov: 0
  - pieces:
    - piece: 0
      isMovable: 1
      oneDirection: 1
      lerpMov: 0
    - piece: 8
      isMovable: 1
      oneDirection: 1
      lerpMov: 0
  - pieces:
    - piece: 8
      isMovable: 1
      oneDirection: 1
      lerpMov: 0
    - piece: 10
      isMovable: 1
      oneDirection: 1
      lerpMov: 0
  - pieces:
    - piece: 6
      isMovable: 0
      oneDirection: 1
      lerpMov: 0
    - piece: 7
      isMovable: 1
      oneDirection: 1
      lerpMov: 0
  - pieces:
    - piece: 8
      isMovable: 1
      oneDirection: 1
      lerpMov: 0
    - piece: 3
      isMovable: 1
      oneDirection: 1
      lerpMov: 0
  - pieces:
    - piece: 4
      isMovable: 1
      oneDirection: 1
      lerpMov: 0
    - piece: 0
      isMovable: 1
      oneDirection: 1
      lerpMov: 0
  - pieces:
    - piece: 3
      isMovable: 1
      oneDirection: 1
      lerpMov: 0
    - piece: 5
      isMovable: 0
      oneDirection: 1
      lerpMov: 0
  - pieces: []
  PowerUps:
    Position:
    - HelixNumber: 6
      PieceNumber: 1
