%YAML 1.1
%TAG !u! tag:unity3d.com,2011:
--- !u!114 &11400000
MonoBehaviour:
  m_ObjectHideFlags: 0
  m_PrefabParentObject: {fileID: 0}
  m_PrefabInternal: {fileID: 0}
  m_GameObject: {fileID: 0}
  m_Enabled: 1
  m_EditorHideFlags: 0
  m_Script: {fileID: 11500000, guid: fdfac07331e216d4ca76456589a146cc, type: 3}
  m_Name: challenge_038
  m_EditorClassIdentifier: 
  levelNumber: 38
  DisabledPieces:
  - pieces: 020000000900000001000000
  - pieces: 070000000b000000040000000100000003000000
  - pieces: 080000000b00000003000000
  - pieces: 060000000b000000080000000200000004000000
  - pieces: 08000000060000000900000003000000
  - pieces: 06000000040000000a00000001000000
  - pieces: 0500000003000000060000000100000009000000
  - pieces: 050000000100000006000000
  - pieces: 010000000b00000004000000
  - pieces: 070000000200000009000000060000000a000000
  - pieces: 0200000009000000070000000b000000
  - pieces: 080000000200000000000000
  - pieces: 020000000700000009000000
  - pieces: 070000000100000009000000
  - pieces: 0a0000000b000000000000000700000008000000
  - pieces: 0b000000060000000200000005000000
  - pieces: 030000000600000008000000
  - pieces: 0000000001000000030000000a000000
  - pieces: 05000000080000000700000004000000
  - pieces: 07000000080000000a000000
  - pieces: 080000000100000004000000
  - pieces: 0800000007000000000000000600000009000000
  - pieces: 02000000000000000b000000
  - pieces: 030000000100000000000000
  - pieces: 020000000700000009000000030000000a000000
  - pieces: 0a000000090000000200000003000000
  - pieces: 0600000007000000040000000a000000
  - pieces: 08000000040000000000000002000000
  - pieces: 0b00000005000000090000000a000000
  - pieces: 07000000040000000900000003000000
  - pieces: 0400000009000000050000000800000007000000
  - pieces: 0300000004000000050000000a0000000b000000
  - pieces: 0600000002000000040000000a000000
  - pieces: 
  DeadPieces:
  - pieces: []
  - pieces:
    - piece: 6
      isMovable: 0
      oneDirection: 0
      lerpMov: 1
    - piece: 2
      isMovable: 1
      oneDirection: 0
      lerpMov: 1
  - pieces:
    - piece: 9
      isMovable: 1
      oneDirection: 0
      lerpMov: 1
    - piece: 4
      isMovable: 0
      oneDirection: 0
      lerpMov: 1
  - pieces:
    - piece: 0
      isMovable: 1
      oneDirection: 0
      lerpMov: 1
    - piece: 9
      isMovable: 1
      oneDirection: 0
      lerpMov: 1
  - pieces:
    - piece: 7
      isMovable: 0
      oneDirection: 0
      lerpMov: 1
    - piece: 4
      isMovable: 1
      oneDirection: 0
      lerpMov: 1
  - pieces:
    - piece: 3
      isMovable: 0
      oneDirection: 0
      lerpMov: 1
    - piece: 7
      isMovable: 1
      oneDirection: 0
      lerpMov: 1
  - pieces:
    - piece: 8
      isMovable: 0
      oneDirection: 0
      lerpMov: 1
    - piece: 2
      isMovable: 0
      oneDirection: 0
      lerpMov: 1
  - pieces:
    - piece: 11
      isMovable: 1
      oneDirection: 0
      lerpMov: 1
    - piece: 8
      isMovable: 1
      oneDirection: 0
      lerpMov: 1
  - pieces:
    - piece: 7
      isMovable: 1
      oneDirection: 0
      lerpMov: 1
    - piece: 10
      isMovable: 1
      oneDirection: 0
      lerpMov: 1
  - pieces:
    - piece: 3
      isMovable: 0
      oneDirection: 0
      lerpMov: 1
    - piece: 1
      isMovable: 0
      oneDirection: 0
      lerpMov: 1
  - pieces:
    - piece: 1
      isMovable: 1
      oneDirection: 0
      lerpMov: 1
    - piece: 5
      isMovable: 1
      oneDirection: 0
      lerpMov: 1
  - pieces:
    - piece: 10
      isMovable: 0
      oneDirection: 0
      lerpMov: 1
    - piece: 5
      isMovable: 1
      oneDirection: 0
      lerpMov: 1
  - pieces:
    - piece: 8
      isMovable: 1
      oneDirection: 0
      lerpMov: 1
    - piece: 0
      isMovable: 0
      oneDirection: 0
      lerpMov: 1
  - pieces:
    - piece: 0
      isMovable: 1
      oneDirection: 0
      lerpMov: 1
    - piece: 3
      isMovable: 0
      oneDirection: 0
      lerpMov: 1
  - pieces:
    - piece: 1
      isMovable: 0
      oneDirection: 0
      lerpMov: 1
    - piece: 6
      isMovable: 0
      oneDirection: 0
      lerpMov: 1
  - pieces:
    - piece: 7
      isMovable: 0
      oneDirection: 0
      lerpMov: 1
    - piece: 9
      isMovable: 0
      oneDirection: 0
      lerpMov: 1
  - pieces:
    - piece: 9
      isMovable: 0
      oneDirection: 0
      lerpMov: 1
    - piece: 5
      isMovable: 0
      oneDirection: 0
      lerpMov: 1
  - pieces:
    - piece: 8
      isMovable: 1
      oneDirection: 0
      lerpMov: 1
    - piece: 9
      isMovable: 1
      oneDirection: 0
      lerpMov: 1
  - pieces:
    - piece: 0
      isMovable: 0
      oneDirection: 0
      lerpMov: 1
    - piece: 9
      isMovable: 1
      oneDirection: 0
      lerpMov: 1
  - pieces:
    - piece: 2
      isMovable: 1
      oneDirection: 0
      lerpMov: 1
    - piece: 6
      isMovable: 1
      oneDirection: 0
      lerpMov: 1
  - pieces:
    - piece: 11
      isMovable: 1
      oneDirection: 0
      lerpMov: 1
    - piece: 0
      isMovable: 1
      oneDirection: 0
      lerpMov: 1
  - pieces:
    - piece: 3
      isMovable: 1
      oneDirection: 0
      lerpMov: 1
    - piece: 5
      isMovable: 0
      oneDirection: 0
      lerpMov: 1
  - pieces:
    - piece: 5
      isMovable: 0
      oneDirection: 0
      lerpMov: 1
    - piece: 9
      isMovable: 1
      oneDirection: 0
      lerpMov: 1
  - pieces:
    - piece: 11
      isMovable: 1
      oneDirection: 0
      lerpMov: 1
    - piece: 4
      isMovable: 1
      oneDirection: 0
      lerpMov: 1
  - pieces:
    - piece: 1
      isMovable: 1
      oneDirection: 0
      lerpMov: 1
    - piece: 4
      isMovable: 1
      oneDirection: 0
      lerpMov: 1
  - pieces:
    - piece: 6
      isMovable: 1
      oneDirection: 0
      lerpMov: 1
    - piece: 4
      isMovable: 1
      oneDirection: 0
      lerpMov: 1
  - pieces:
    - piece: 0
      isMovable: 1
      oneDirection: 0
      lerpMov: 1
    - piece: 3
      isMovable: 1
      oneDirection: 0
      lerpMov: 1
  - pieces:
    - piece: 5
      isMovable: 1
      oneDirection: 0
      lerpMov: 1
    - piece: 7
      isMovable: 0
      oneDirection: 0
      lerpMov: 1
  - pieces:
    - piece: 6
      isMovable: 0
      oneDirection: 0
      lerpMov: 1
    - piece: 2
      isMovable: 1
      oneDirection: 0
      lerpMov: 1
  - pieces:
    - piece: 6
      isMovable: 1
      oneDirection: 0
      lerpMov: 1
    - piece: 0
      isMovable: 1
      oneDirection: 0
      lerpMov: 1
  - pieces:
    - piece: 11
      isMovable: 1
      oneDirection: 0
      lerpMov: 1
    - piece: 3
      isMovable: 1
      oneDirection: 0
      lerpMov: 1
  - pieces:
    - piece: 9
      isMovable: 1
      oneDirection: 0
      lerpMov: 1
    - piece: 1
      isMovable: 0
      oneDirection: 0
      lerpMov: 1
  - pieces:
    - piece: 5
      isMovable: 1
      oneDirection: 0
      lerpMov: 1
    - piece: 8
      isMovable: 1
      oneDirection: 0
      lerpMov: 1
  - pieces: []
  PowerUps:
    Position:
    - HelixNumber: 7
      PieceNumber: 4
