%YAML 1.1
%TAG !u! tag:unity3d.com,2011:
--- !u!114 &11400000
MonoBehaviour:
  m_ObjectHideFlags: 0
  m_PrefabParentObject: {fileID: 0}
  m_PrefabInternal: {fileID: 0}
  m_GameObject: {fileID: 0}
  m_Enabled: 1
  m_EditorHideFlags: 0
  m_Script: {fileID: 11500000, guid: fdfac07331e216d4ca76456589a146cc, type: 3}
  m_Name: challenge_031
  m_EditorClassIdentifier: 
  levelNumber: 31
  DisabledPieces:
  - pieces: 010000000a00000000000000
  - pieces: 090000000000000005000000
  - pieces: 08000000090000000400000006000000
  - pieces: 0b000000090000000300000002000000
  - pieces: 020000000b0000000700000008000000
  - pieces: 0b00000004000000000000000600000003000000
  - pieces: 0400000001000000030000000200000008000000
  - pieces: 010000000500000000000000
  - pieces: 040000000b00000002000000
  - pieces: 0200000001000000090000000700000000000000
  - pieces: 0800000003000000050000000100000006000000
  - pieces: 020000000800000005000000090000000b000000
  - pieces: 0b0000000a00000003000000
  - pieces: 010000000200000003000000
  - pieces: 04000000050000000100000000000000
  - pieces: 090000000200000000000000060000000a000000
  - pieces: 0300000009000000010000000a000000
  - pieces: 050000000b000000070000000200000009000000
  - pieces: 01000000080000000a00000006000000
  - pieces: 0500000004000000070000000300000009000000
  - pieces: 070000000000000005000000
  - pieces: 080000000a0000000400000006000000
  - pieces: 040000000b000000000000000200000005000000
  - pieces: 0a0000000800000002000000
  - pieces: 0100000002000000090000000a000000
  - pieces: 
  DeadPieces:
  - pieces: []
  - pieces:
    - piece: 7
      isMovable: 1
      oneDirection: 0
      lerpMov: 1
  - pieces:
    - piece: 7
      isMovable: 1
      oneDirection: 0
      lerpMov: 1
  - pieces:
    - piece: 8
      isMovable: 0
      oneDirection: 0
      lerpMov: 1
  - pieces:
    - piece: 9
      isMovable: 1
      oneDirection: 0
      lerpMov: 1
  - pieces:
    - piece: 10
      isMovable: 1
      oneDirection: 0
      lerpMov: 1
  - pieces:
    - piece: 10
      isMovable: 1
      oneDirection: 0
      lerpMov: 1
  - pieces:
    - piece: 7
      isMovable: 1
      oneDirection: 0
      lerpMov: 1
  - pieces:
    - piece: 8
      isMovable: 1
      oneDirection: 0
      lerpMov: 1
  - pieces:
    - piece: 6
      isMovable: 1
      oneDirection: 0
      lerpMov: 1
  - pieces:
    - piece: 9
      isMovable: 1
      oneDirection: 0
      lerpMov: 1
  - pieces:
    - piece: 6
      isMovable: 1
      oneDirection: 0
      lerpMov: 1
  - pieces:
    - piece: 4
      isMovable: 1
      oneDirection: 0
      lerpMov: 1
  - pieces:
    - piece: 8
      isMovable: 1
      oneDirection: 0
      lerpMov: 1
  - pieces:
    - piece: 10
      isMovable: 1
      oneDirection: 0
      lerpMov: 1
  - pieces:
    - piece: 4
      isMovable: 0
      oneDirection: 0
      lerpMov: 1
  - pieces:
    - piece: 6
      isMovable: 1
      oneDirection: 0
      lerpMov: 1
  - pieces:
    - piece: 0
      isMovable: 1
      oneDirection: 0
      lerpMov: 1
  - pieces:
    - piece: 3
      isMovable: 1
      oneDirection: 0
      lerpMov: 1
  - pieces:
    - piece: 10
      isMovable: 1
      oneDirection: 0
      lerpMov: 1
  - pieces:
    - piece: 4
      isMovable: 1
      oneDirection: 0
      lerpMov: 1
  - pieces:
    - piece: 1
      isMovable: 0
      oneDirection: 0
      lerpMov: 1
  - pieces:
    - piece: 9
      isMovable: 0
      oneDirection: 0
      lerpMov: 1
  - pieces:
    - piece: 11
      isMovable: 1
      oneDirection: 0
      lerpMov: 1
  - pieces:
    - piece: 11
      isMovable: 1
      oneDirection: 0
      lerpMov: 1
  - pieces: []
  PowerUps:
    Position:
    - HelixNumber: 6
      PieceNumber: 2
