%YAML 1.1
%TAG !u! tag:unity3d.com,2011:
--- !u!114 &11400000
MonoBehaviour:
  m_ObjectHideFlags: 0
  m_PrefabParentObject: {fileID: 0}
  m_PrefabInternal: {fileID: 0}
  m_GameObject: {fileID: 0}
  m_Enabled: 1
  m_EditorHideFlags: 0
  m_Script: {fileID: 11500000, guid: fdfac07331e216d4ca76456589a146cc, type: 3}
  m_Name: challenge_017
  m_EditorClassIdentifier: 
  levelNumber: 17
  DisabledPieces:
  - pieces: 04000000000000000300000009000000
  - pieces: 08000000090000000100000002000000
  - pieces: 040000000b0000000900000002000000
  - pieces: 0300000005000000060000000a0000000700000001000000
  - pieces: 050000000b0000000000000007000000
  - pieces: 090000000a000000050000000300000002000000
  - pieces: 030000000b0000000500000009000000
  - pieces: 05000000000000000300000004000000
  - pieces: 0000000009000000070000000a000000
  - pieces: 07000000050000000a0000000300000009000000
  - pieces: 0300000006000000020000000b00000000000000
  - pieces: 050000000a000000070000000600000009000000
  - pieces: 090000000500000006000000080000000b00000001000000
  - pieces: 060000000b00000009000000050000000700000004000000
  - pieces: 08000000060000000500000001000000
  - pieces: 00000000010000000500000009000000
  - pieces: 00000000040000000a000000070000000200000006000000
  - pieces: 0100000009000000000000000700000004000000
  - pieces: 060000000400000009000000030000000b00000001000000
  - pieces: 01000000090000000a00000006000000
  - pieces: 0200000008000000090000000600000007000000
  - pieces: 010000000200000004000000060000000b00000000000000
  - pieces: 070000000000000005000000090000000600000004000000
  - pieces: 07000000020000000b0000000300000005000000
  - pieces: 02000000080000000100000009000000
  - pieces: 00000000060000000700000008000000
  - pieces: 0b00000007000000050000000600000002000000
  - pieces: 
  DeadPieces:
  - pieces: []
  - pieces:
    - piece: 6
      isMovable: 0
      oneDirection: 0
      lerpMov: 0
    - piece: 5
      isMovable: 0
      oneDirection: 0
      lerpMov: 0
    - piece: 3
      isMovable: 0
      oneDirection: 0
      lerpMov: 0
  - pieces:
    - piece: 7
      isMovable: 0
      oneDirection: 0
      lerpMov: 0
    - piece: 1
      isMovable: 0
      oneDirection: 0
      lerpMov: 0
    - piece: 8
      isMovable: 0
      oneDirection: 0
      lerpMov: 0
  - pieces:
    - piece: 2
      isMovable: 0
      oneDirection: 0
      lerpMov: 0
    - piece: 11
      isMovable: 0
      oneDirection: 0
      lerpMov: 0
    - piece: 0
      isMovable: 0
      oneDirection: 0
      lerpMov: 0
  - pieces:
    - piece: 10
      isMovable: 0
      oneDirection: 0
      lerpMov: 0
    - piece: 8
      isMovable: 0
      oneDirection: 0
      lerpMov: 0
    - piece: 4
      isMovable: 0
      oneDirection: 0
      lerpMov: 0
  - pieces:
    - piece: 4
      isMovable: 0
      oneDirection: 0
      lerpMov: 0
    - piece: 8
      isMovable: 0
      oneDirection: 0
      lerpMov: 0
    - piece: 6
      isMovable: 0
      oneDirection: 0
      lerpMov: 0
  - pieces:
    - piece: 7
      isMovable: 0
      oneDirection: 0
      lerpMov: 0
    - piece: 8
      isMovable: 0
      oneDirection: 0
      lerpMov: 0
    - piece: 10
      isMovable: 0
      oneDirection: 0
      lerpMov: 0
  - pieces:
    - piece: 9
      isMovable: 0
      oneDirection: 0
      lerpMov: 0
    - piece: 8
      isMovable: 0
      oneDirection: 0
      lerpMov: 0
    - piece: 2
      isMovable: 0
      oneDirection: 0
      lerpMov: 0
  - pieces:
    - piece: 2
      isMovable: 0
      oneDirection: 0
      lerpMov: 0
    - piece: 1
      isMovable: 0
      oneDirection: 0
      lerpMov: 0
    - piece: 5
      isMovable: 0
      oneDirection: 0
      lerpMov: 0
  - pieces:
    - piece: 6
      isMovable: 0
      oneDirection: 0
      lerpMov: 0
    - piece: 11
      isMovable: 0
      oneDirection: 0
      lerpMov: 0
    - piece: 8
      isMovable: 0
      oneDirection: 0
      lerpMov: 0
  - pieces:
    - piece: 1
      isMovable: 0
      oneDirection: 0
      lerpMov: 0
    - piece: 7
      isMovable: 0
      oneDirection: 0
      lerpMov: 0
    - piece: 8
      isMovable: 0
      oneDirection: 0
      lerpMov: 0
  - pieces:
    - piece: 8
      isMovable: 0
      oneDirection: 0
      lerpMov: 0
    - piece: 1
      isMovable: 0
      oneDirection: 0
      lerpMov: 0
    - piece: 4
      isMovable: 0
      oneDirection: 0
      lerpMov: 0
  - pieces:
    - piece: 4
      isMovable: 0
      oneDirection: 0
      lerpMov: 0
    - piece: 10
      isMovable: 0
      oneDirection: 0
      lerpMov: 0
    - piece: 7
      isMovable: 0
      oneDirection: 0
      lerpMov: 0
  - pieces:
    - piece: 3
      isMovable: 0
      oneDirection: 0
      lerpMov: 0
    - piece: 0
      isMovable: 0
      oneDirection: 0
      lerpMov: 0
    - piece: 1
      isMovable: 0
      oneDirection: 0
      lerpMov: 0
  - pieces:
    - piece: 7
      isMovable: 0
      oneDirection: 0
      lerpMov: 0
    - piece: 10
      isMovable: 0
      oneDirection: 0
      lerpMov: 0
    - piece: 11
      isMovable: 0
      oneDirection: 0
      lerpMov: 0
  - pieces:
    - piece: 7
      isMovable: 0
      oneDirection: 0
      lerpMov: 0
    - piece: 6
      isMovable: 0
      oneDirection: 0
      lerpMov: 0
    - piece: 10
      isMovable: 0
      oneDirection: 0
      lerpMov: 0
  - pieces:
    - piece: 9
      isMovable: 0
      oneDirection: 0
      lerpMov: 0
    - piece: 8
      isMovable: 0
      oneDirection: 0
      lerpMov: 0
    - piece: 3
      isMovable: 0
      oneDirection: 0
      lerpMov: 0
  - pieces:
    - piece: 5
      isMovable: 0
      oneDirection: 0
      lerpMov: 0
    - piece: 6
      isMovable: 0
      oneDirection: 0
      lerpMov: 0
    - piece: 8
      isMovable: 0
      oneDirection: 0
      lerpMov: 0
  - pieces:
    - piece: 7
      isMovable: 0
      oneDirection: 0
      lerpMov: 0
    - piece: 0
      isMovable: 0
      oneDirection: 0
      lerpMov: 0
    - piece: 5
      isMovable: 0
      oneDirection: 0
      lerpMov: 0
  - pieces:
    - piece: 2
      isMovable: 0
      oneDirection: 0
      lerpMov: 0
    - piece: 11
      isMovable: 0
      oneDirection: 0
      lerpMov: 0
    - piece: 3
      isMovable: 0
      oneDirection: 0
      lerpMov: 0
  - pieces:
    - piece: 4
      isMovable: 0
      oneDirection: 0
      lerpMov: 0
    - piece: 10
      isMovable: 0
      oneDirection: 0
      lerpMov: 0
    - piece: 0
      isMovable: 0
      oneDirection: 0
      lerpMov: 0
  - pieces:
    - piece: 7
      isMovable: 0
      oneDirection: 0
      lerpMov: 0
    - piece: 3
      isMovable: 0
      oneDirection: 0
      lerpMov: 0
    - piece: 10
      isMovable: 0
      oneDirection: 0
      lerpMov: 0
  - pieces:
    - piece: 10
      isMovable: 0
      oneDirection: 0
      lerpMov: 0
    - piece: 11
      isMovable: 0
      oneDirection: 0
      lerpMov: 0
    - piece: 3
      isMovable: 0
      oneDirection: 0
      lerpMov: 0
  - pieces:
    - piece: 8
      isMovable: 0
      oneDirection: 0
      lerpMov: 0
    - piece: 10
      isMovable: 0
      oneDirection: 0
      lerpMov: 0
    - piece: 9
      isMovable: 0
      oneDirection: 0
      lerpMov: 0
  - pieces:
    - piece: 11
      isMovable: 0
      oneDirection: 0
      lerpMov: 0
    - piece: 6
      isMovable: 0
      oneDirection: 0
      lerpMov: 0
    - piece: 5
      isMovable: 0
      oneDirection: 0
      lerpMov: 0
  - pieces:
    - piece: 11
      isMovable: 0
      oneDirection: 0
      lerpMov: 0
    - piece: 10
      isMovable: 0
      oneDirection: 0
      lerpMov: 0
    - piece: 5
      isMovable: 0
      oneDirection: 0
      lerpMov: 0
  - pieces:
    - piece: 0
      isMovable: 0
      oneDirection: 0
      lerpMov: 0
    - piece: 10
      isMovable: 0
      oneDirection: 0
      lerpMov: 0
    - piece: 9
      isMovable: 0
      oneDirection: 0
      lerpMov: 0
  - pieces: []
  PowerUps:
    Position:
    - HelixNumber: 8
      PieceNumber: 2
