%YAML 1.1
%TAG !u! tag:unity3d.com,2011:
--- !u!114 &11400000
MonoBehaviour:
  m_ObjectHideFlags: 0
  m_PrefabParentObject: {fileID: 0}
  m_PrefabInternal: {fileID: 0}
  m_GameObject: {fileID: 0}
  m_Enabled: 1
  m_EditorHideFlags: 0
  m_Script: {fileID: 11500000, guid: fdfac07331e216d4ca76456589a146cc, type: 3}
  m_Name: challenge_059
  m_EditorClassIdentifier: 
  levelNumber: 59
  DisabledPieces:
  - pieces: 010000000a000000
  - pieces: 000000000b000000020000000800000004000000
  - pieces: 04000000010000000800000003000000
  - pieces: 030000000a000000070000000200000004000000
  - pieces: 0a000000070000000b0000000000000008000000
  - pieces: 0900000007000000
  - pieces: 0600000004000000000000000200000008000000
  - pieces: 030000000a00000002000000
  - pieces: 0b00000004000000090000000600000003000000
  - pieces: 0500000003000000
  - pieces: 060000000b0000000a0000000000000001000000
  - pieces: 060000000500000004000000010000000b000000
  - pieces: 0900000001000000
  - pieces: 090000000a000000
  - pieces: 0900000004000000050000000b000000
  - pieces: 0400000001000000050000000800000006000000
  - pieces: 0100000000000000080000000a00000006000000
  - pieces: 0200000008000000
  - pieces: 0600000000000000030000000a00000004000000
  - pieces: 0500000009000000
  - pieces: 020000000a0000000100000004000000
  - pieces: 01000000030000000b000000
  - pieces: 0a0000000b0000000300000007000000
  - pieces: 0b00000000000000070000000900000006000000
  - pieces: 07000000080000000400000003000000
  - pieces: 0a0000000800000006000000
  - pieces: 0600000005000000040000000b00000001000000
  - pieces: 0400000005000000
  - pieces: 0300000002000000
  - pieces: 060000000a000000
  - pieces: 07000000010000000b00000000000000
  - pieces: 0a00000004000000
  - pieces: 0500000008000000
  - pieces: 040000000b000000030000000800000009000000
  - pieces: 040000000700000006000000000000000a000000
  - pieces: 000000000a000000
  - pieces: 01000000070000000200000005000000
  - pieces: 080000000200000001000000
  - pieces: 050000000a000000010000000400000007000000
  - pieces: 
  DeadPieces:
  - pieces: []
  - pieces:
    - piece: 5
      isMovable: 1
      oneDirection: 1
      lerpMov: 1
    - piece: 3
      isMovable: 1
      oneDirection: 1
      lerpMov: 1
  - pieces:
    - piece: 7
      isMovable: 1
      oneDirection: 1
      lerpMov: 1
    - piece: 5
      isMovable: 0
      oneDirection: 1
      lerpMov: 1
  - pieces:
    - piece: 0
      isMovable: 1
      oneDirection: 1
      lerpMov: 1
    - piece: 6
      isMovable: 1
      oneDirection: 1
      lerpMov: 1
  - pieces:
    - piece: 5
      isMovable: 1
      oneDirection: 1
      lerpMov: 1
    - piece: 3
      isMovable: 0
      oneDirection: 1
      lerpMov: 1
  - pieces:
    - piece: 2
      isMovable: 0
      oneDirection: 1
      lerpMov: 1
    - piece: 8
      isMovable: 1
      oneDirection: 1
      lerpMov: 1
  - pieces:
    - piece: 7
      isMovable: 1
      oneDirection: 1
      lerpMov: 1
    - piece: 11
      isMovable: 0
      oneDirection: 1
      lerpMov: 1
  - pieces:
    - piece: 8
      isMovable: 1
      oneDirection: 1
      lerpMov: 1
    - piece: 7
      isMovable: 1
      oneDirection: 1
      lerpMov: 1
  - pieces:
    - piece: 1
      isMovable: 1
      oneDirection: 1
      lerpMov: 1
    - piece: 2
      isMovable: 1
      oneDirection: 1
      lerpMov: 1
  - pieces:
    - piece: 8
      isMovable: 0
      oneDirection: 1
      lerpMov: 1
    - piece: 4
      isMovable: 0
      oneDirection: 1
      lerpMov: 1
  - pieces:
    - piece: 7
      isMovable: 1
      oneDirection: 1
      lerpMov: 1
    - piece: 4
      isMovable: 1
      oneDirection: 1
      lerpMov: 1
  - pieces:
    - piece: 8
      isMovable: 1
      oneDirection: 1
      lerpMov: 1
    - piece: 9
      isMovable: 1
      oneDirection: 1
      lerpMov: 1
  - pieces:
    - piece: 11
      isMovable: 1
      oneDirection: 1
      lerpMov: 1
    - piece: 3
      isMovable: 1
      oneDirection: 1
      lerpMov: 1
  - pieces:
    - piece: 0
      isMovable: 1
      oneDirection: 1
      lerpMov: 1
    - piece: 7
      isMovable: 1
      oneDirection: 1
      lerpMov: 1
  - pieces:
    - piece: 3
      isMovable: 1
      oneDirection: 1
      lerpMov: 1
    - piece: 0
      isMovable: 1
      oneDirection: 1
      lerpMov: 1
  - pieces:
    - piece: 9
      isMovable: 1
      oneDirection: 1
      lerpMov: 1
    - piece: 0
      isMovable: 1
      oneDirection: 1
      lerpMov: 1
  - pieces:
    - piece: 11
      isMovable: 1
      oneDirection: 1
      lerpMov: 1
    - piece: 4
      isMovable: 1
      oneDirection: 1
      lerpMov: 1
  - pieces:
    - piece: 9
      isMovable: 1
      oneDirection: 1
      lerpMov: 1
    - piece: 6
      isMovable: 1
      oneDirection: 1
      lerpMov: 1
  - pieces:
    - piece: 2
      isMovable: 1
      oneDirection: 1
      lerpMov: 1
    - piece: 9
      isMovable: 1
      oneDirection: 1
      lerpMov: 1
  - pieces:
    - piece: 0
      isMovable: 1
      oneDirection: 1
      lerpMov: 1
    - piece: 11
      isMovable: 1
      oneDirection: 1
      lerpMov: 1
  - pieces:
    - piece: 7
      isMovable: 1
      oneDirection: 1
      lerpMov: 1
    - piece: 11
      isMovable: 1
      oneDirection: 1
      lerpMov: 1
  - pieces:
    - piece: 6
      isMovable: 1
      oneDirection: 1
      lerpMov: 1
    - piece: 8
      isMovable: 1
      oneDirection: 1
      lerpMov: 1
  - pieces:
    - piece: 8
      isMovable: 1
      oneDirection: 1
      lerpMov: 1
    - piece: 0
      isMovable: 1
      oneDirection: 1
      lerpMov: 1
  - pieces:
    - piece: 5
      isMovable: 1
      oneDirection: 1
      lerpMov: 1
    - piece: 4
      isMovable: 1
      oneDirection: 1
      lerpMov: 1
  - pieces:
    - piece: 5
      isMovable: 1
      oneDirection: 1
      lerpMov: 1
    - piece: 10
      isMovable: 1
      oneDirection: 1
      lerpMov: 1
  - pieces:
    - piece: 11
      isMovable: 0
      oneDirection: 1
      lerpMov: 1
    - piece: 7
      isMovable: 1
      oneDirection: 1
      lerpMov: 1
  - pieces:
    - piece: 7
      isMovable: 1
      oneDirection: 1
      lerpMov: 1
    - piece: 10
      isMovable: 1
      oneDirection: 1
      lerpMov: 1
  - pieces:
    - piece: 9
      isMovable: 1
      oneDirection: 1
      lerpMov: 1
    - piece: 1
      isMovable: 1
      oneDirection: 1
      lerpMov: 1
  - pieces:
    - piece: 8
      isMovable: 1
      oneDirection: 1
      lerpMov: 1
    - piece: 7
      isMovable: 0
      oneDirection: 1
      lerpMov: 1
  - pieces:
    - piece: 4
      isMovable: 1
      oneDirection: 1
      lerpMov: 1
    - piece: 3
      isMovable: 0
      oneDirection: 1
      lerpMov: 1
  - pieces:
    - piece: 2
      isMovable: 1
      oneDirection: 1
      lerpMov: 1
    - piece: 9
      isMovable: 1
      oneDirection: 1
      lerpMov: 1
  - pieces:
    - piece: 9
      isMovable: 0
      oneDirection: 1
      lerpMov: 1
    - piece: 7
      isMovable: 1
      oneDirection: 1
      lerpMov: 1
  - pieces:
    - piece: 4
      isMovable: 1
      oneDirection: 1
      lerpMov: 1
    - piece: 7
      isMovable: 1
      oneDirection: 1
      lerpMov: 1
  - pieces:
    - piece: 5
      isMovable: 1
      oneDirection: 1
      lerpMov: 1
    - piece: 6
      isMovable: 1
      oneDirection: 1
      lerpMov: 1
  - pieces:
    - piece: 3
      isMovable: 1
      oneDirection: 1
      lerpMov: 1
    - piece: 1
      isMovable: 1
      oneDirection: 1
      lerpMov: 1
  - pieces:
    - piece: 4
      isMovable: 1
      oneDirection: 1
      lerpMov: 1
    - piece: 8
      isMovable: 1
      oneDirection: 1
      lerpMov: 1
  - pieces:
    - piece: 9
      isMovable: 0
      oneDirection: 1
      lerpMov: 1
    - piece: 8
      isMovable: 1
      oneDirection: 1
      lerpMov: 1
  - pieces:
    - piece: 4
      isMovable: 1
      oneDirection: 1
      lerpMov: 1
    - piece: 11
      isMovable: 1
      oneDirection: 1
      lerpMov: 1
  - pieces:
    - piece: 8
      isMovable: 0
      oneDirection: 1
      lerpMov: 1
    - piece: 9
      isMovable: 1
      oneDirection: 1
      lerpMov: 1
  - pieces: []
  PowerUps:
    Position:
    - HelixNumber: 9
      PieceNumber: 2
