%YAML 1.1
%TAG !u! tag:unity3d.com,2011:
--- !u!114 &11400000
MonoBehaviour:
  m_ObjectHideFlags: 0
  m_PrefabParentObject: {fileID: 0}
  m_PrefabInternal: {fileID: 0}
  m_GameObject: {fileID: 0}
  m_Enabled: 1
  m_EditorHideFlags: 0
  m_Script: {fileID: 11500000, guid: fdfac07331e216d4ca76456589a146cc, type: 3}
  m_Name: challenge_098
  m_EditorClassIdentifier: 
  levelNumber: 98
  DisabledPieces:
  - pieces: 0300000001000000
  - pieces: 030000000a000000
  - pieces: 0700000003000000
  - pieces: 04000000
  - pieces: 00000000
  - pieces: 0b000000
  - pieces: 05000000
  - pieces: 02000000
  - pieces: 090000000b000000
  - pieces: 08000000
  - pieces: 070000000a000000
  - pieces: 0a00000007000000
  - pieces: 0900000008000000
  - pieces: 0400000001000000
  - pieces: 04000000
  - pieces: 07000000
  - pieces: 05000000
  - pieces: 040000000b000000
  - pieces: 0b000000
  - pieces: 0100000000000000
  - pieces: 00000000
  - pieces: 0500000002000000
  - pieces: 05000000
  - pieces: 0900000001000000
  - pieces: 0800000009000000
  - pieces: 0100000005000000
  - pieces: 0a00000003000000
  - pieces: 05000000
  - pieces: 03000000
  - pieces: 000000000a000000
  - pieces: 0600000000000000
  - pieces: 0200000009000000
  - pieces: 090000000a000000
  - pieces: 0400000001000000
  - pieces: 0a000000
  - pieces: 0000000001000000
  - pieces: 01000000
  - pieces: 0900000003000000
  - pieces: 07000000
  - pieces: 0500000007000000
  - pieces: 0600000000000000
  - pieces: 0a000000
  - pieces: 08000000
  - pieces: 09000000
  - pieces: 00000000
  - pieces: 0300000006000000
  - pieces: 04000000
  - pieces: 03000000
  - pieces: 08000000
  - pieces: 0a000000
  - pieces: 
  DeadPieces:
  - pieces: []
  - pieces:
    - piece: 6
      isMovable: 1
      oneDirection: 1
      lerpMov: 0
    - piece: 4
      isMovable: 1
      oneDirection: 1
      lerpMov: 1
  - pieces:
    - piece: 9
      isMovable: 1
      oneDirection: 1
      lerpMov: 1
    - piece: 1
      isMovable: 1
      oneDirection: 1
      lerpMov: 1
  - pieces:
    - piece: 11
      isMovable: 1
      oneDirection: 1
      lerpMov: 0
    - piece: 5
      isMovable: 1
      oneDirection: 1
      lerpMov: 0
  - pieces:
    - piece: 5
      isMovable: 1
      oneDirection: 1
      lerpMov: 0
    - piece: 10
      isMovable: 1
      oneDirection: 0
      lerpMov: 1
  - pieces:
    - piece: 2
      isMovable: 1
      oneDirection: 1
      lerpMov: 1
    - piece: 7
      isMovable: 1
      oneDirection: 0
      lerpMov: 0
  - pieces:
    - piece: 10
      isMovable: 1
      oneDirection: 0
      lerpMov: 1
    - piece: 3
      isMovable: 1
      oneDirection: 0
      lerpMov: 1
  - pieces:
    - piece: 11
      isMovable: 1
      oneDirection: 0
      lerpMov: 0
    - piece: 4
      isMovable: 1
      oneDirection: 1
      lerpMov: 0
  - pieces:
    - piece: 7
      isMovable: 1
      oneDirection: 1
      lerpMov: 1
    - piece: 10
      isMovable: 1
      oneDirection: 1
      lerpMov: 1
  - pieces:
    - piece: 1
      isMovable: 1
      oneDirection: 1
      lerpMov: 0
    - piece: 4
      isMovable: 1
      oneDirection: 1
      lerpMov: 1
  - pieces:
    - piece: 5
      isMovable: 1
      oneDirection: 1
      lerpMov: 0
    - piece: 1
      isMovable: 1
      oneDirection: 0
      lerpMov: 1
  - pieces:
    - piece: 5
      isMovable: 1
      oneDirection: 1
      lerpMov: 1
    - piece: 2
      isMovable: 1
      oneDirection: 1
      lerpMov: 1
  - pieces:
    - piece: 11
      isMovable: 1
      oneDirection: 0
      lerpMov: 0
    - piece: 5
      isMovable: 1
      oneDirection: 1
      lerpMov: 0
  - pieces:
    - piece: 5
      isMovable: 1
      oneDirection: 1
      lerpMov: 1
    - piece: 8
      isMovable: 1
      oneDirection: 0
      lerpMov: 0
  - pieces:
    - piece: 10
      isMovable: 1
      oneDirection: 1
      lerpMov: 1
    - piece: 6
      isMovable: 1
      oneDirection: 1
      lerpMov: 1
  - pieces:
    - piece: 4
      isMovable: 1
      oneDirection: 1
      lerpMov: 0
    - piece: 3
      isMovable: 1
      oneDirection: 0
      lerpMov: 0
  - pieces:
    - piece: 4
      isMovable: 1
      oneDirection: 1
      lerpMov: 1
    - piece: 2
      isMovable: 1
      oneDirection: 1
      lerpMov: 0
  - pieces:
    - piece: 2
      isMovable: 1
      oneDirection: 0
      lerpMov: 1
    - piece: 7
      isMovable: 1
      oneDirection: 0
      lerpMov: 0
  - pieces:
    - piece: 5
      isMovable: 1
      oneDirection: 0
      lerpMov: 1
    - piece: 3
      isMovable: 1
      oneDirection: 0
      lerpMov: 0
  - pieces:
    - piece: 5
      isMovable: 1
      oneDirection: 1
      lerpMov: 1
    - piece: 11
      isMovable: 1
      oneDirection: 0
      lerpMov: 1
  - pieces:
    - piece: 2
      isMovable: 1
      oneDirection: 1
      lerpMov: 1
    - piece: 5
      isMovable: 1
      oneDirection: 0
      lerpMov: 1
  - pieces:
    - piece: 4
      isMovable: 1
      oneDirection: 0
      lerpMov: 0
    - piece: 3
      isMovable: 1
      oneDirection: 0
      lerpMov: 1
  - pieces:
    - piece: 0
      isMovable: 1
      oneDirection: 1
      lerpMov: 1
    - piece: 8
      isMovable: 1
      oneDirection: 1
      lerpMov: 1
  - pieces:
    - piece: 10
      isMovable: 1
      oneDirection: 1
      lerpMov: 0
    - piece: 8
      isMovable: 1
      oneDirection: 0
      lerpMov: 1
  - pieces:
    - piece: 10
      isMovable: 1
      oneDirection: 0
      lerpMov: 0
    - piece: 6
      isMovable: 1
      oneDirection: 0
      lerpMov: 1
  - pieces:
    - piece: 11
      isMovable: 1
      oneDirection: 0
      lerpMov: 0
    - piece: 2
      isMovable: 1
      oneDirection: 0
      lerpMov: 0
  - pieces:
    - piece: 4
      isMovable: 1
      oneDirection: 1
      lerpMov: 0
    - piece: 2
      isMovable: 1
      oneDirection: 1
      lerpMov: 0
  - pieces:
    - piece: 1
      isMovable: 1
      oneDirection: 0
      lerpMov: 0
    - piece: 10
      isMovable: 1
      oneDirection: 0
      lerpMov: 1
  - pieces:
    - piece: 11
      isMovable: 1
      oneDirection: 1
      lerpMov: 0
    - piece: 8
      isMovable: 1
      oneDirection: 1
      lerpMov: 1
  - pieces:
    - piece: 8
      isMovable: 1
      oneDirection: 1
      lerpMov: 0
    - piece: 9
      isMovable: 1
      oneDirection: 1
      lerpMov: 0
  - pieces:
    - piece: 5
      isMovable: 1
      oneDirection: 0
      lerpMov: 1
    - piece: 11
      isMovable: 1
      oneDirection: 0
      lerpMov: 1
  - pieces:
    - piece: 6
      isMovable: 1
      oneDirection: 1
      lerpMov: 0
    - piece: 3
      isMovable: 1
      oneDirection: 1
      lerpMov: 0
  - pieces:
    - piece: 1
      isMovable: 1
      oneDirection: 0
      lerpMov: 1
    - piece: 2
      isMovable: 1
      oneDirection: 0
      lerpMov: 0
  - pieces:
    - piece: 3
      isMovable: 1
      oneDirection: 1
      lerpMov: 0
    - piece: 6
      isMovable: 1
      oneDirection: 0
      lerpMov: 1
  - pieces:
    - piece: 8
      isMovable: 1
      oneDirection: 0
      lerpMov: 1
    - piece: 0
      isMovable: 1
      oneDirection: 1
      lerpMov: 0
  - pieces:
    - piece: 11
      isMovable: 1
      oneDirection: 0
      lerpMov: 0
    - piece: 3
      isMovable: 1
      oneDirection: 0
      lerpMov: 1
  - pieces:
    - piece: 8
      isMovable: 1
      oneDirection: 0
      lerpMov: 0
    - piece: 11
      isMovable: 1
      oneDirection: 1
      lerpMov: 1
  - pieces:
    - piece: 7
      isMovable: 1
      oneDirection: 0
      lerpMov: 0
    - piece: 0
      isMovable: 1
      oneDirection: 1
      lerpMov: 1
  - pieces:
    - piece: 9
      isMovable: 1
      oneDirection: 0
      lerpMov: 1
    - piece: 3
      isMovable: 1
      oneDirection: 1
      lerpMov: 0
  - pieces:
    - piece: 10
      isMovable: 1
      oneDirection: 0
      lerpMov: 1
    - piece: 11
      isMovable: 1
      oneDirection: 1
      lerpMov: 0
  - pieces:
    - piece: 1
      isMovable: 1
      oneDirection: 1
      lerpMov: 0
    - piece: 11
      isMovable: 1
      oneDirection: 1
      lerpMov: 0
  - pieces:
    - piece: 0
      isMovable: 1
      oneDirection: 1
      lerpMov: 0
    - piece: 6
      isMovable: 1
      oneDirection: 0
      lerpMov: 0
  - pieces:
    - piece: 0
      isMovable: 1
      oneDirection: 0
      lerpMov: 0
    - piece: 7
      isMovable: 1
      oneDirection: 1
      lerpMov: 0
  - pieces:
    - piece: 5
      isMovable: 1
      oneDirection: 1
      lerpMov: 0
    - piece: 6
      isMovable: 1
      oneDirection: 1
      lerpMov: 0
  - pieces:
    - piece: 9
      isMovable: 1
      oneDirection: 1
      lerpMov: 0
    - piece: 7
      isMovable: 1
      oneDirection: 0
      lerpMov: 0
  - pieces:
    - piece: 0
      isMovable: 1
      oneDirection: 0
      lerpMov: 1
    - piece: 10
      isMovable: 1
      oneDirection: 1
      lerpMov: 0
  - pieces:
    - piece: 7
      isMovable: 1
      oneDirection: 0
      lerpMov: 0
    - piece: 9
      isMovable: 1
      oneDirection: 1
      lerpMov: 0
  - pieces:
    - piece: 5
      isMovable: 1
      oneDirection: 1
      lerpMov: 1
    - piece: 9
      isMovable: 1
      oneDirection: 1
      lerpMov: 0
  - pieces:
    - piece: 11
      isMovable: 1
      oneDirection: 1
      lerpMov: 0
    - piece: 0
      isMovable: 1
      oneDirection: 1
      lerpMov: 1
  - pieces:
    - piece: 6
      isMovable: 1
      oneDirection: 0
      lerpMov: 1
    - piece: 2
      isMovable: 1
      oneDirection: 0
      lerpMov: 1
  - pieces: []
  PowerUps:
    Position:
    - HelixNumber: 9
      PieceNumber: 9
    - HelixNumber: 22
      PieceNumber: 3
