%YAML 1.1
%TAG !u! tag:unity3d.com,2011:
--- !u!114 &11400000
MonoBehaviour:
  m_ObjectHideFlags: 0
  m_PrefabParentObject: {fileID: 0}
  m_PrefabInternal: {fileID: 0}
  m_GameObject: {fileID: 0}
  m_Enabled: 1
  m_EditorHideFlags: 0
  m_Script: {fileID: 11500000, guid: fdfac07331e216d4ca76456589a146cc, type: 3}
  m_Name: challenge_060
  m_EditorClassIdentifier: 
  levelNumber: 60
  DisabledPieces:
  - pieces: 050000000600000007000000
  - pieces: 050000000600000007000000
  - pieces: 050000000600000007000000
  - pieces: 050000000600000007000000
  - pieces: 050000000600000007000000
  - pieces: 050000000600000007000000
  - pieces: 040000000500000006000000
  - pieces: 030000000400000005000000
  - pieces: 020000000300000004000000
  - pieces: 010000000200000003000000
  - pieces: 000000000100000002000000
  - pieces: 00000000010000000b000000
  - pieces: 000000000a0000000b000000
  - pieces: 090000000a0000000b000000
  - pieces: 090000000a0000000b000000
  - pieces: 08000000090000000a000000
  - pieces: 070000000800000009000000
  - pieces: 060000000700000008000000
  - pieces: 050000000600000007000000
  - pieces: 040000000500000006000000
  - pieces: 030000000400000005000000
  - pieces: 020000000300000004000000
  - pieces: 010000000200000003000000
  - pieces: 010000000200000003000000
  - pieces: 000000000100000002000000
  - pieces: 00000000010000000b000000
  - pieces: 000000000a0000000b000000
  - pieces: 090000000a0000000b000000
  - pieces: 08000000090000000a000000
  - pieces: 070000000800000009000000
  - pieces: 060000000700000008000000
  - pieces: 050000000600000007000000
  - pieces: 050000000600000007000000
  - pieces: 050000000600000007000000
  - pieces: 050000000600000007000000
  - pieces: 050000000600000007000000
  - pieces: 050000000600000007000000
  - pieces: 050000000600000007000000
  - pieces: 050000000600000007000000
  - pieces: 050000000600000007000000
  - pieces: 
  DeadPieces:
  - pieces: []
  - pieces: []
  - pieces: []
  - pieces: []
  - pieces: []
  - pieces: []
  - pieces: []
  - pieces: []
  - pieces: []
  - pieces: []
  - pieces: []
  - pieces: []
  - pieces: []
  - pieces: []
  - pieces: []
  - pieces: []
  - pieces: []
  - pieces: []
  - pieces: []
  - pieces: []
  - pieces: []
  - pieces: []
  - pieces: []
  - pieces: []
  - pieces: []
  - pieces: []
  - pieces: []
  - pieces: []
  - pieces: []
  - pieces: []
  - pieces: []
  - pieces: []
  - pieces: []
  - pieces: []
  - pieces: []
  - pieces: []
  - pieces: []
  - pieces: []
  - pieces: []
  - pieces: []
  - pieces: []
  PowerUps:
    Position: []
