%YAML 1.1
%TAG !u! tag:unity3d.com,2011:
--- !u!114 &11400000
MonoBehaviour:
  m_ObjectHideFlags: 0
  m_PrefabParentObject: {fileID: 0}
  m_PrefabInternal: {fileID: 0}
  m_GameObject: {fileID: 0}
  m_Enabled: 1
  m_EditorHideFlags: 0
  m_Script: {fileID: 11500000, guid: fdfac07331e216d4ca76456589a146cc, type: 3}
  m_Name: challenge_025
  m_EditorClassIdentifier: 
  levelNumber: 25
  DisabledPieces:
  - pieces: 0a0000000100000007000000
  - pieces: 060000000a0000000700000004000000
  - pieces: 0100000007000000050000000800000002000000
  - pieces: 070000000a00000003000000
  - pieces: 03000000000000000200000001000000
  - pieces: 070000000a0000000100000006000000
  - pieces: 080000000000000002000000
  - pieces: 090000000a00000005000000
  - pieces: 010000000b0000000700000004000000
  - pieces: 02000000070000000a0000000000000005000000
  - pieces: 05000000070000000100000003000000
  - pieces: 0b000000070000000100000002000000
  - pieces: 020000000300000006000000
  - pieces: 0b0000000a00000008000000
  - pieces: 050000000200000004000000
  - pieces: 0200000003000000060000000800000005000000
  - pieces: 000000000a000000040000000800000002000000
  - pieces: 08000000030000000100000004000000
  - pieces: 080000000500000007000000
  - pieces: 090000000b000000020000000300000008000000
  - pieces: 02000000070000000b00000004000000
  - pieces: 010000000700000006000000
  - pieces: 0b0000000400000007000000060000000a000000
  - pieces: 07000000080000000b00000005000000
  - pieces: 080000000b000000050000000a000000
  - pieces: 0500000003000000060000000b00000001000000
  - pieces: 010000000400000003000000
  - pieces: 06000000070000000500000002000000
  - pieces: 04000000010000000a00000006000000
  - pieces: 
  DeadPieces:
  - pieces: []
  - pieces:
    - piece: 8
      isMovable: 0
      oneDirection: 0
      lerpMov: 0
  - pieces:
    - piece: 6
      isMovable: 0
      oneDirection: 0
      lerpMov: 0
  - pieces:
    - piece: 2
      isMovable: 0
      oneDirection: 0
      lerpMov: 0
  - pieces:
    - piece: 4
      isMovable: 0
      oneDirection: 0
      lerpMov: 0
  - pieces:
    - piece: 2
      isMovable: 0
      oneDirection: 0
      lerpMov: 0
  - pieces:
    - piece: 3
      isMovable: 0
      oneDirection: 0
      lerpMov: 0
  - pieces:
    - piece: 3
      isMovable: 0
      oneDirection: 0
      lerpMov: 0
  - pieces:
    - piece: 0
      isMovable: 0
      oneDirection: 0
      lerpMov: 0
  - pieces:
    - piece: 11
      isMovable: 0
      oneDirection: 0
      lerpMov: 0
  - pieces:
    - piece: 4
      isMovable: 0
      oneDirection: 0
      lerpMov: 0
  - pieces:
    - piece: 9
      isMovable: 0
      oneDirection: 0
      lerpMov: 0
  - pieces:
    - piece: 1
      isMovable: 0
      oneDirection: 0
      lerpMov: 0
  - pieces:
    - piece: 2
      isMovable: 0
      oneDirection: 0
      lerpMov: 0
  - pieces:
    - piece: 9
      isMovable: 0
      oneDirection: 0
      lerpMov: 0
  - pieces:
    - piece: 4
      isMovable: 0
      oneDirection: 0
      lerpMov: 0
  - pieces:
    - piece: 3
      isMovable: 0
      oneDirection: 0
      lerpMov: 0
  - pieces:
    - piece: 2
      isMovable: 0
      oneDirection: 0
      lerpMov: 0
  - pieces:
    - piece: 6
      isMovable: 0
      oneDirection: 0
      lerpMov: 0
  - pieces:
    - piece: 6
      isMovable: 0
      oneDirection: 0
      lerpMov: 0
  - pieces:
    - piece: 10
      isMovable: 0
      oneDirection: 0
      lerpMov: 0
  - pieces:
    - piece: 9
      isMovable: 0
      oneDirection: 0
      lerpMov: 0
  - pieces:
    - piece: 1
      isMovable: 0
      oneDirection: 0
      lerpMov: 0
  - pieces:
    - piece: 3
      isMovable: 0
      oneDirection: 0
      lerpMov: 0
  - pieces:
    - piece: 7
      isMovable: 0
      oneDirection: 0
      lerpMov: 0
  - pieces:
    - piece: 8
      isMovable: 0
      oneDirection: 0
      lerpMov: 0
  - pieces:
    - piece: 11
      isMovable: 0
      oneDirection: 0
      lerpMov: 0
  - pieces:
    - piece: 0
      isMovable: 0
      oneDirection: 0
      lerpMov: 0
  - pieces:
    - piece: 9
      isMovable: 0
      oneDirection: 0
      lerpMov: 0
  - pieces: []
  PowerUps:
    Position:
    - HelixNumber: 7
      PieceNumber: 7
