%YAML 1.1
%TAG !u! tag:unity3d.com,2011:
--- !u!114 &11400000
MonoBehaviour:
  m_ObjectHideFlags: 0
  m_PrefabParentObject: {fileID: 0}
  m_PrefabInternal: {fileID: 0}
  m_GameObject: {fileID: 0}
  m_Enabled: 1
  m_EditorHideFlags: 0
  m_Script: {fileID: 11500000, guid: fdfac07331e216d4ca76456589a146cc, type: 3}
  m_Name: challenge_036
  m_EditorClassIdentifier: 
  levelNumber: 36
  DisabledPieces:
  - pieces: 0a000000050000000b000000
  - pieces: 00000000020000000400000005000000
  - pieces: 02000000030000000b0000000800000006000000
  - pieces: 0400000009000000070000000b00000005000000
  - pieces: 0900000001000000040000000000000003000000
  - pieces: 0600000002000000040000000b000000
  - pieces: 0400000005000000080000000a00000002000000
  - pieces: 06000000050000000100000008000000
  - pieces: 04000000010000000a0000000900000007000000
  - pieces: 060000000a00000009000000
  - pieces: 09000000040000000100000002000000
  - pieces: 08000000090000000a000000
  - pieces: 0a0000000b000000090000000500000008000000
  - pieces: 0b0000000200000004000000
  - pieces: 050000000900000006000000
  - pieces: 08000000070000000400000009000000
  - pieces: 010000000a0000000600000009000000
  - pieces: 020000000300000006000000080000000a000000
  - pieces: 000000000100000009000000
  - pieces: 0b00000008000000020000000a00000004000000
  - pieces: 030000000400000007000000
  - pieces: 00000000090000000a00000007000000
  - pieces: 0000000007000000040000000300000006000000
  - pieces: 0800000004000000090000000700000002000000
  - pieces: 0b0000000500000007000000
  - pieces: 06000000010000000a000000
  - pieces: 000000000a00000001000000
  - pieces: 0a000000060000000100000005000000
  - pieces: 0b00000004000000010000000a000000
  - pieces: 030000000900000007000000
  - pieces: 0100000006000000030000000a000000
  - pieces: 
  DeadPieces:
  - pieces: []
  - pieces:
    - piece: 1
      isMovable: 1
      oneDirection: 0
      lerpMov: 1
    - piece: 6
      isMovable: 1
      oneDirection: 0
      lerpMov: 1
  - pieces:
    - piece: 5
      isMovable: 1
      oneDirection: 0
      lerpMov: 1
    - piece: 0
      isMovable: 1
      oneDirection: 0
      lerpMov: 1
  - pieces:
    - piece: 1
      isMovable: 1
      oneDirection: 0
      lerpMov: 1
    - piece: 10
      isMovable: 1
      oneDirection: 0
      lerpMov: 1
  - pieces:
    - piece: 11
      isMovable: 0
      oneDirection: 0
      lerpMov: 1
    - piece: 6
      isMovable: 0
      oneDirection: 0
      lerpMov: 1
  - pieces:
    - piece: 5
      isMovable: 1
      oneDirection: 0
      lerpMov: 1
    - piece: 8
      isMovable: 0
      oneDirection: 0
      lerpMov: 1
  - pieces:
    - piece: 1
      isMovable: 1
      oneDirection: 0
      lerpMov: 1
    - piece: 11
      isMovable: 0
      oneDirection: 0
      lerpMov: 1
  - pieces:
    - piece: 9
      isMovable: 0
      oneDirection: 0
      lerpMov: 1
    - piece: 11
      isMovable: 1
      oneDirection: 0
      lerpMov: 1
  - pieces:
    - piece: 2
      isMovable: 1
      oneDirection: 0
      lerpMov: 1
    - piece: 8
      isMovable: 1
      oneDirection: 0
      lerpMov: 1
  - pieces:
    - piece: 2
      isMovable: 1
      oneDirection: 0
      lerpMov: 1
    - piece: 8
      isMovable: 1
      oneDirection: 0
      lerpMov: 1
  - pieces:
    - piece: 11
      isMovable: 1
      oneDirection: 0
      lerpMov: 1
    - piece: 0
      isMovable: 1
      oneDirection: 0
      lerpMov: 1
  - pieces:
    - piece: 4
      isMovable: 0
      oneDirection: 0
      lerpMov: 1
    - piece: 11
      isMovable: 0
      oneDirection: 0
      lerpMov: 1
  - pieces:
    - piece: 1
      isMovable: 1
      oneDirection: 0
      lerpMov: 1
    - piece: 4
      isMovable: 0
      oneDirection: 0
      lerpMov: 1
  - pieces:
    - piece: 9
      isMovable: 1
      oneDirection: 0
      lerpMov: 1
    - piece: 8
      isMovable: 0
      oneDirection: 0
      lerpMov: 1
  - pieces:
    - piece: 7
      isMovable: 1
      oneDirection: 0
      lerpMov: 1
    - piece: 4
      isMovable: 1
      oneDirection: 0
      lerpMov: 1
  - pieces:
    - piece: 2
      isMovable: 1
      oneDirection: 0
      lerpMov: 1
    - piece: 3
      isMovable: 1
      oneDirection: 0
      lerpMov: 1
  - pieces:
    - piece: 4
      isMovable: 0
      oneDirection: 0
      lerpMov: 1
    - piece: 11
      isMovable: 1
      oneDirection: 0
      lerpMov: 1
  - pieces:
    - piece: 11
      isMovable: 1
      oneDirection: 0
      lerpMov: 1
    - piece: 7
      isMovable: 1
      oneDirection: 0
      lerpMov: 1
  - pieces:
    - piece: 2
      isMovable: 1
      oneDirection: 0
      lerpMov: 1
    - piece: 8
      isMovable: 1
      oneDirection: 0
      lerpMov: 1
  - pieces:
    - piece: 5
      isMovable: 1
      oneDirection: 0
      lerpMov: 1
    - piece: 1
      isMovable: 0
      oneDirection: 0
      lerpMov: 1
  - pieces:
    - piece: 2
      isMovable: 1
      oneDirection: 0
      lerpMov: 1
    - piece: 1
      isMovable: 1
      oneDirection: 0
      lerpMov: 1
  - pieces:
    - piece: 5
      isMovable: 1
      oneDirection: 0
      lerpMov: 1
    - piece: 4
      isMovable: 1
      oneDirection: 0
      lerpMov: 1
  - pieces:
    - piece: 10
      isMovable: 1
      oneDirection: 0
      lerpMov: 1
    - piece: 1
      isMovable: 0
      oneDirection: 0
      lerpMov: 1
  - pieces:
    - piece: 6
      isMovable: 0
      oneDirection: 0
      lerpMov: 1
    - piece: 5
      isMovable: 1
      oneDirection: 0
      lerpMov: 1
  - pieces:
    - piece: 2
      isMovable: 0
      oneDirection: 0
      lerpMov: 1
    - piece: 10
      isMovable: 1
      oneDirection: 0
      lerpMov: 1
  - pieces:
    - piece: 8
      isMovable: 1
      oneDirection: 0
      lerpMov: 1
    - piece: 3
      isMovable: 1
      oneDirection: 0
      lerpMov: 1
  - pieces:
    - piece: 4
      isMovable: 1
      oneDirection: 0
      lerpMov: 1
    - piece: 2
      isMovable: 1
      oneDirection: 0
      lerpMov: 1
  - pieces:
    - piece: 3
      isMovable: 1
      oneDirection: 0
      lerpMov: 1
    - piece: 0
      isMovable: 1
      oneDirection: 0
      lerpMov: 1
  - pieces:
    - piece: 5
      isMovable: 0
      oneDirection: 0
      lerpMov: 1
    - piece: 0
      isMovable: 1
      oneDirection: 0
      lerpMov: 1
  - pieces:
    - piece: 2
      isMovable: 0
      oneDirection: 0
      lerpMov: 1
    - piece: 5
      isMovable: 0
      oneDirection: 0
      lerpMov: 1
  - pieces:
    - piece: 9
      isMovable: 1
      oneDirection: 0
      lerpMov: 1
    - piece: 4
      isMovable: 0
      oneDirection: 0
      lerpMov: 1
  - pieces: []
  PowerUps:
    Position:
    - HelixNumber: 9
      PieceNumber: 6
